<?xml version="1.0" encoding="UTF-8" standalone="no"?>
<!DOCTYPE svg PUBLIC "-//W3C//DTD SVG 1.1//EN" "http://www.w3.org/Graphics/SVG/1.1/DTD/svg11.dtd">
<svg width="100%" height="100%" viewBox="0 0 24 24" version="1.1" xmlns="http://www.w3.org/2000/svg" xmlns:xlink="http://www.w3.org/1999/xlink" xml:space="preserve" xmlns:serif="http://www.serif.com/" style="fill-rule:evenodd;clip-rule:evenodd;stroke-linejoin:round;stroke-miterlimit:2;">
    <g transform="matrix(1,0,0,1,-68,0)">
        <g id="Ebene1">
        </g>
        <g transform="matrix(1,0,0,1,-20.8411,-6.37452)">
            <path d="M97.151,19.006C96.982,18.748 96.811,18.49 96.639,18.234L96.585,18.152C96.026,17.309 95.497,16.446 94.975,15.578C94.255,14.382 93.569,13.166 92.902,11.939C92.554,11.3 92.67,10.509 93.186,9.996C93.827,9.358 94.864,9.362 95.502,10.003C96.513,11.021 97.486,12.079 98.386,13.197C99.058,14.034 99.719,14.883 100.316,15.774L100.322,15.782C100.653,15.462 100.984,15.141 101.315,14.821C101.329,14.806 101.344,14.792 101.359,14.778C101.862,14.29 102.375,13.812 102.901,13.349C103.354,12.948 103.813,12.553 104.281,12.171L104.349,12.115C104.691,11.837 105.037,11.564 105.39,11.303C105.842,10.968 106.335,10.681 106.872,10.509L106.885,10.504L106.889,10.503L106.893,10.502L106.897,10.501C106.902,10.499 106.907,10.498 106.912,10.496L106.915,10.495L106.921,10.493L106.925,10.492L106.93,10.491L106.936,10.489L106.939,10.488L106.952,10.484L106.954,10.484L106.957,10.483L106.96,10.482C108.066,10.17 109.321,10.655 109.837,11.711C109.969,11.982 110.045,12.276 110.061,12.577C110.101,13.337 109.748,14.075 109.181,14.573C108.905,14.817 108.613,15.042 108.317,15.261C108.316,15.262 108.316,15.262 108.315,15.263C108.304,15.271 108.293,15.278 108.282,15.286C108,15.496 107.725,15.715 107.453,15.937L107.396,15.984C106.976,16.326 106.565,16.68 106.159,17.039C105.688,17.455 105.22,17.875 104.755,18.297L104.662,18.382C104.205,18.799 103.753,19.222 103.306,19.651C103.509,19.876 103.719,20.096 103.94,20.304L103.976,20.339C104.331,20.672 104.688,21.003 105.05,21.329C105.055,21.333 105.06,21.338 105.065,21.342C105.535,21.771 105.889,22.324 106.22,22.863C106.661,23.576 107.064,24.312 107.459,25.051C107.58,25.278 107.615,25.542 107.557,25.793C107.425,26.366 106.853,26.723 106.28,26.591C105.448,26.399 104.617,26.193 103.806,25.927C103.101,25.695 102.373,25.416 101.815,24.912L101.774,24.874C101.353,24.49 100.956,24.078 100.576,23.653L100.534,23.605C100.341,23.387 100.151,23.165 99.965,22.941C99.866,23.038 99.766,23.134 99.667,23.23C99.196,23.686 98.73,24.147 98.272,24.617C97.761,25.141 97.246,25.662 96.729,26.181C96.507,26.405 96.285,26.629 96.07,26.859C96.015,26.918 95.961,26.977 95.908,27.038C95.886,27.062 95.872,27.082 95.882,27.068L95.9,27.042C95.74,27.272 95.549,27.474 95.311,27.626C95.154,27.725 94.984,27.8 94.804,27.848L94.564,27.895C94.271,27.931 93.974,27.896 93.698,27.793C93.063,27.555 92.612,26.973 92.516,26.308C92.483,26.074 92.492,25.836 92.539,25.604C92.542,25.588 92.545,25.573 92.549,25.558C92.625,25.217 92.78,24.898 92.948,24.594C93.132,24.26 93.335,23.936 93.541,23.616C93.544,23.611 93.546,23.607 93.549,23.603C93.972,22.947 94.411,22.302 94.887,21.683C95.327,21.11 95.788,20.554 96.26,20.009L96.31,19.952C96.586,19.633 96.867,19.318 97.151,19.006Z"/>
        </g>
    </g>
</svg>
