<?xml version="1.0" encoding="UTF-8" standalone="no"?>
<!DOCTYPE svg PUBLIC "-//W3C//DTD SVG 1.1//EN" "http://www.w3.org/Graphics/SVG/1.1/DTD/svg11.dtd">
<svg width="100%" height="100%" viewBox="0 0 24 24" version="1.1" xmlns="http://www.w3.org/2000/svg" xmlns:xlink="http://www.w3.org/1999/xlink" xml:space="preserve" xmlns:serif="http://www.serif.com/" style="fill-rule:evenodd;clip-rule:evenodd;stroke-linejoin:round;stroke-miterlimit:2;">
    <g transform="matrix(1,0,0,1,-136,-34)">
        <g id="Ebene1">
        </g>
        <g>
            <path d="M147.788,35.999L147.788,35.999C148.231,35.497 148.906,35.414 149.536,35.453L149.54,35.453C150.226,35.497 150.915,35.758 151.285,36.373C151.579,36.629 151.753,36.991 151.85,37.371L151.852,37.382C151.949,37.769 151.959,38.177 151.954,38.577C152.153,38.443 152.358,38.319 152.565,38.202L152.582,38.192C153.295,37.79 154.123,37.572 154.939,37.718L154.949,37.72C155.388,37.8 155.837,37.898 156.243,38.091L156.252,38.095C156.581,38.253 156.882,38.465 157.138,38.725L157.14,38.728C157.392,38.985 157.599,39.283 157.767,39.6L157.771,39.607C157.964,39.975 158.081,40.379 158.125,40.792C158.125,40.794 158.126,40.796 158.126,40.799L158.126,40.799L158.126,40.801C158.16,41.121 158.19,41.442 158.217,41.763L158.217,41.763L158.218,41.767C158.256,42.225 158.216,42.688 158.108,43.134L158.104,43.152C158.008,43.544 157.881,43.928 157.726,44.3L157.726,44.3L157.726,44.3C157.574,44.663 157.394,45.015 157.188,45.35C157.082,45.549 156.937,45.737 156.803,45.914C156.676,46.082 156.542,46.246 156.402,46.403L156.402,46.403C156.122,46.718 155.812,47.007 155.472,47.257L155.456,47.269C155.172,47.475 154.865,47.651 154.541,47.784C155.01,47.992 155.334,48.456 155.35,48.991L155.351,48.999C155.358,49.299 155.281,49.593 155.173,49.871L155.173,49.871L155.173,49.871C155.172,49.874 155.171,49.877 155.17,49.879C155.019,50.266 154.785,50.623 154.56,50.97L154.56,50.97L154.56,50.971C154.1,51.681 153.608,52.372 153.12,53.064L153.066,53.14C152.798,53.518 152.527,53.895 152.242,54.261C152.039,54.522 151.831,54.788 151.582,55.008C151.582,55.008 151.58,55.01 151.58,55.01C151.182,55.36 150.687,55.585 150.161,55.656C150.161,55.656 150.161,55.656 150.161,55.656C149.449,55.751 148.742,55.463 148.351,54.849L148.351,54.849L148.35,54.847C148.048,54.372 147.907,53.796 147.778,53.255C147.778,53.255 147.778,53.255 147.778,53.255C147.65,52.718 147.542,52.176 147.467,51.629C147.433,51.673 147.399,51.717 147.364,51.76C147.364,51.76 147.363,51.76 147.363,51.76C147.101,52.086 146.821,52.397 146.515,52.682L146.5,52.695C146.223,52.952 145.926,53.189 145.607,53.392C145.605,53.394 145.602,53.395 145.6,53.397C145.226,53.634 144.812,53.803 144.391,53.938L144.39,53.939C143.866,54.107 143.291,54.205 142.756,54.027L142.755,54.027L142.749,54.025L142.747,54.024L142.747,54.024C142.317,53.879 141.949,53.594 141.676,53.234L141.668,53.223C141.494,52.991 141.341,52.743 141.216,52.482C141.059,52.158 140.962,51.807 140.887,51.456L140.885,51.444C140.775,50.923 140.755,50.383 140.747,49.853L140.747,49.853L140.747,49.853L140.747,49.853C140.744,49.677 140.743,49.502 140.744,49.327C140.351,49.081 139.941,48.822 139.629,48.477L139.629,48.477L139.626,48.474C139.333,48.149 139.157,47.74 139.061,47.316L139.061,47.315L139.061,47.315C138.948,46.811 138.984,46.284 139.158,45.798L139.158,45.798L139.158,45.798C139.158,45.798 139.16,45.792 139.16,45.792L139.16,45.792C139.313,45.364 139.526,44.941 139.901,44.667L139.901,44.666L139.908,44.662L139.908,44.662C139.991,44.602 140.064,44.523 140.135,44.45L140.136,44.45L140.136,44.45C140.494,44.084 140.97,43.853 141.479,43.8L141.489,43.798L141.496,43.797C141.526,43.784 141.553,43.765 141.579,43.746C141.579,43.746 141.579,43.746 141.579,43.746C141.777,43.604 141.984,43.476 142.198,43.362C142.299,43.144 142.412,42.932 142.535,42.726L142.536,42.724L142.536,42.724C142.669,42.501 142.803,42.277 142.944,42.058C142.856,41.967 142.769,41.875 142.684,41.781L142.684,41.781L142.684,41.781C142.684,41.781 142.684,41.78 142.684,41.78C142.182,41.227 141.778,40.579 141.573,39.858L141.573,39.858C141.326,38.988 141.831,38.082 142.701,37.836C143.571,37.589 144.476,38.094 144.723,38.964C144.789,39.198 144.949,39.403 145.109,39.58L145.111,39.582C145.375,39.873 145.634,40.168 145.891,40.465C145.99,40.466 146.088,40.469 146.185,40.473L146.188,40.473C146.482,40.482 146.79,40.521 147.08,40.607C147.047,40.513 147.028,40.413 147.024,40.308L147.024,40.308C146.997,39.547 146.98,38.775 147.069,38.017L147.07,38.015C147.122,37.568 147.177,37.096 147.362,36.682L147.365,36.675C147.475,36.432 147.611,36.2 147.788,35.999ZM151.398,51.194C151.103,51.299 150.805,51.391 150.503,51.472C150.503,51.472 150.502,51.473 150.502,51.473C150.266,51.536 150.024,51.577 149.779,51.605C149.84,51.972 149.922,52.337 150.015,52.697L150.015,52.697C150.04,52.79 150.065,52.883 150.092,52.976C150.166,52.886 150.235,52.789 150.304,52.7C150.575,52.35 150.834,51.99 151.09,51.629L151.09,51.629C151.192,51.484 151.295,51.339 151.398,51.194ZM143.164,50.51C143.18,50.651 143.202,50.79 143.234,50.926L143.235,50.928C143.267,51.063 143.3,51.213 143.371,51.334L143.371,51.334C143.392,51.37 143.416,51.404 143.441,51.437C143.463,51.429 143.485,51.421 143.506,51.413L143.506,51.413C143.711,51.335 143.921,51.248 144.103,51.123L144.109,51.119C144.179,51.07 144.243,51.015 144.302,50.954C143.919,50.816 143.541,50.665 143.164,50.51ZM149.818,47.455L149.797,47.497C149.689,48.036 149.648,48.589 149.641,49.138C149.741,49.127 149.84,49.112 149.937,49.092C150.204,49.036 150.468,48.966 150.727,48.878L150.743,48.872C151.089,48.753 151.423,48.597 151.751,48.438L151.752,48.438C152.028,48.305 152.306,48.175 152.589,48.056C152.399,48.044 152.21,48.025 152.021,48L152.02,48C151.671,47.954 151.326,47.884 150.986,47.793L150.985,47.793C150.638,47.699 150.297,47.584 149.964,47.448L149.941,47.439C149.909,47.426 149.877,47.413 149.845,47.401L149.818,47.455ZM145.698,44.525L145.698,44.525C145.262,44.762 144.816,44.996 144.346,45.159L144.341,45.16C144.33,45.164 144.319,45.168 144.308,45.172C144.261,45.248 144.215,45.324 144.169,45.4L144.169,45.401L144.168,45.401C143.877,45.889 143.673,46.433 143.478,46.964L143.478,46.964C143.368,47.262 143.266,47.564 143.189,47.872C143.186,47.882 143.184,47.893 143.181,47.903C143.327,47.959 143.472,48.014 143.618,48.069L143.618,48.069C144.133,48.265 144.649,48.46 145.176,48.619L145.176,48.619C145.36,48.675 145.546,48.724 145.734,48.768C145.803,48.633 145.871,48.497 145.939,48.362C146.355,47.528 146.771,46.694 147.188,45.86C147.147,45.823 147.107,45.785 147.066,45.748L147.032,45.715C146.673,45.38 146.31,45.051 145.946,44.722L145.946,44.722L145.946,44.722C145.87,44.653 145.793,44.584 145.716,44.515L145.698,44.525ZM155.434,39.944C155.387,39.931 155.348,39.926 155.286,39.928C155.177,39.933 155.069,39.949 154.962,39.97L154.961,39.97C154.657,40.029 154.391,40.227 154.165,40.428L154.164,40.429C153.87,40.691 153.569,40.966 153.337,41.287L153.337,41.287L153.337,41.287C153.09,41.628 152.846,41.971 152.602,42.315L152.602,42.315C152.341,42.684 152.09,43.061 151.848,43.443C151.663,43.734 151.507,44.045 151.348,44.352C151.192,44.654 151.04,44.958 150.889,45.263C151.113,45.348 151.342,45.422 151.573,45.484L151.598,45.49C151.818,45.548 152.043,45.587 152.27,45.605C152.537,45.625 152.806,45.637 153.074,45.64L153.074,45.64C153.224,45.641 153.374,45.616 153.515,45.566L153.524,45.563C153.701,45.499 153.866,45.405 154.017,45.294L154.018,45.294C154.222,45.145 154.406,44.97 154.573,44.781L154.574,44.78C154.762,44.567 154.934,44.34 155.084,44.1L155.084,44.1C155.249,43.837 155.401,43.567 155.541,43.291L155.541,43.291L155.541,43.291L155.541,43.29L155.542,43.29C155.659,43.059 155.75,42.817 155.813,42.566L155.82,42.538C155.894,42.244 155.96,41.948 156.017,41.651L156.017,41.649C156.062,41.417 156.083,41.18 156.075,40.945L156.075,40.944C156.069,40.804 156.04,40.665 155.975,40.54L155.975,40.54C155.9,40.395 155.81,40.257 155.696,40.14L155.696,40.14C155.619,40.062 155.53,39.997 155.434,39.944ZM141.515,43.795C141.51,43.796 141.504,43.796 141.496,43.797L141.495,43.798L141.495,43.798L141.503,43.797L141.514,43.797L141.514,43.796L141.515,43.795ZM149.254,39.696C149.174,39.984 149.091,40.27 149.007,40.557C148.886,40.97 148.518,41.26 148.089,41.283C148.1,41.298 148.11,41.314 148.121,41.329L148.125,41.337C148.311,41.627 148.419,41.961 148.408,42.308L148.408,42.31L148.408,42.314L148.408,42.317L148.408,42.318L148.408,42.319C148.395,42.65 148.247,42.924 148.039,43.155C148.135,43.288 148.234,43.422 148.339,43.551C148.361,43.508 148.383,43.464 148.404,43.421C148.564,42.847 148.723,42.273 148.875,41.697L148.875,41.697C148.961,41.372 149.039,41.044 149.104,40.713C149.104,40.713 149.104,40.712 149.104,40.712L149.104,40.711C149.159,40.429 149.204,40.146 149.237,39.86L149.239,39.843C149.244,39.794 149.249,39.745 149.254,39.696Z"/>
        </g>
    </g>
</svg>
