<?xml version="1.0" encoding="UTF-8" standalone="no"?>
<!DOCTYPE svg PUBLIC "-//W3C//DTD SVG 1.1//EN" "http://www.w3.org/Graphics/SVG/1.1/DTD/svg11.dtd">
<svg width="100%" height="100%" viewBox="0 0 24 24" version="1.1" xmlns="http://www.w3.org/2000/svg" xmlns:xlink="http://www.w3.org/1999/xlink" xml:space="preserve" xmlns:serif="http://www.serif.com/" style="fill-rule:evenodd;clip-rule:evenodd;stroke-linejoin:round;stroke-miterlimit:2;">
    <g transform="matrix(1,0,0,1,-34,-68)">
        <g id="Ebene1">
        </g>
        <g>
            <clipPath id="_clip1">
                <rect x="41.374" y="74.62" width="12.671" height="5.116"/>
            </clipPath>
            <g clip-path="url(#_clip1)">
                <path d="M45.916,79.587C45.288,79.524 44.649,79.478 44.029,79.355L44.028,79.355L44.027,79.355C43.434,79.237 42.868,78.967 42.323,78.715C41.842,78.492 41.498,78.049 41.402,77.527C41.237,76.638 41.824,75.784 42.713,75.619L42.713,75.619C43.248,75.52 43.792,75.41 44.336,75.388L44.337,75.388C44.877,75.366 45.417,75.312 45.956,75.267L45.958,75.267C46.545,75.219 47.134,75.176 47.719,75.103L47.72,75.103C48.143,75.049 48.564,74.977 48.984,74.904L48.984,74.904C49.523,74.81 50.074,74.717 50.623,74.721L50.623,74.721C50.842,74.723 51.062,74.704 51.28,74.682C51.284,74.682 51.288,74.681 51.292,74.681C52.327,74.584 53.511,75.145 53.814,76.201C53.87,76.399 53.889,76.606 53.869,76.811C53.775,77.78 52.912,78.524 52.012,78.758C52.006,78.76 52.001,78.761 51.996,78.762L51.995,78.762C51.848,78.8 51.693,78.838 51.555,78.904L51.555,78.904L51.546,78.908L51.541,78.911L51.54,78.911C50.995,79.169 50.389,79.295 49.8,79.406L49.706,79.424C49.238,79.512 48.768,79.595 48.295,79.655L48.293,79.655L48.293,79.655C47.51,79.754 46.698,79.666 45.917,79.587L45.916,79.587L45.916,79.587Z"/>
            </g>
            <path d="M40.522,69.83C40.775,69.705 41.041,69.605 41.306,69.515L41.306,69.515C41.731,69.372 42.166,69.256 42.61,69.195L42.611,69.195C43.081,69.131 43.554,69.085 44.026,69.038L44.026,69.038C44.497,68.992 44.969,68.946 45.442,68.914L45.442,68.914C45.984,68.877 46.529,68.873 47.072,68.867L47.072,68.867L47.072,68.867C47.703,68.86 48.343,68.859 48.969,68.951L48.97,68.951C49.432,69.019 49.888,69.117 50.34,69.231L50.34,69.231C50.73,69.329 51.123,69.429 51.498,69.576C51.501,69.577 51.505,69.579 51.508,69.58C51.797,69.694 52.075,69.835 52.345,69.988L52.345,69.988L52.345,69.988C52.754,70.22 53.124,70.523 53.411,70.897C53.414,70.9 53.416,70.903 53.419,70.907C53.605,71.15 53.773,71.409 53.902,71.686L53.904,71.691C53.992,71.879 54.071,72.072 54.141,72.268L54.141,72.268C54.263,72.609 54.326,72.97 54.378,73.328L54.383,73.363C54.445,73.795 54.479,74.231 54.484,74.667L54.484,74.668C54.491,75.193 54.428,75.723 54.262,76.223L54.262,76.223L54.258,76.235L54.258,76.235L54.257,76.237C54.094,76.722 53.761,77.144 53.322,77.408C52.774,77.738 52.066,77.806 51.491,77.5C51.316,77.407 51.161,77.283 51.032,77.133C50.544,76.567 50.494,75.735 50.723,75.05L50.723,75.05C50.78,74.88 50.805,74.7 50.821,74.522L50.821,74.522L50.821,74.522C50.849,74.225 50.862,73.926 50.86,73.627L50.86,73.586C50.859,73.489 50.856,73.393 50.85,73.297C50.85,73.286 50.843,73.233 50.841,73.207C50.837,73.202 50.832,73.197 50.826,73.192C50.826,73.192 50.826,73.191 50.826,73.191C50.764,73.131 50.688,73.084 50.613,73.042L50.613,73.042L50.613,73.042C50.536,72.998 50.453,72.951 50.367,72.926C50.367,72.926 50.367,72.926 50.367,72.926C50.062,72.84 49.756,72.759 49.449,72.678L49.449,72.678L49.449,72.678C49.192,72.61 48.932,72.549 48.67,72.506C48.65,73.027 48.631,73.547 48.613,74.068L48.605,74.303L48.605,74.303C48.586,74.862 48.634,75.423 48.726,75.975L48.733,76.016C48.874,76.879 48.932,77.754 48.946,78.627L48.946,78.629C48.956,79.208 48.899,79.794 48.733,80.35C48.728,80.368 48.722,80.386 48.716,80.404C49.071,80.533 49.413,80.696 49.738,80.889L49.739,80.889C50.075,81.089 50.398,81.31 50.705,81.55L50.707,81.552C51.013,81.791 51.303,82.05 51.574,82.327L51.577,82.329C51.816,82.573 52.047,82.824 52.268,83.083L52.269,83.085L52.269,83.085C52.509,83.365 52.731,83.66 52.931,83.971L52.931,83.971C53.082,84.207 53.23,84.447 53.37,84.69L53.372,84.695C53.539,84.985 53.68,85.288 53.79,85.604L53.795,85.619C53.909,85.951 53.994,86.292 54.073,86.633C54.074,86.638 54.075,86.643 54.077,86.647C54.258,87.451 54.035,88.356 53.34,88.854C53.008,89.091 52.603,89.205 52.196,89.175L52.196,89.175C51.283,89.107 50.6,88.366 50.391,87.514L50.391,87.511L50.388,87.501L50.388,87.499L50.388,87.499C50.347,87.327 50.308,87.146 50.238,86.981L50.233,86.969C50.179,86.843 50.115,86.72 50.047,86.601L50.047,86.601L50.046,86.6C49.953,86.439 49.85,86.283 49.742,86.132L49.742,86.132L49.742,86.132C49.611,85.949 49.471,85.772 49.325,85.601L49.325,85.601L49.325,85.601C49.325,85.601 49.325,85.601 49.325,85.601C49.169,85.419 49.005,85.244 48.834,85.077L48.833,85.077L48.833,85.076C48.666,84.913 48.49,84.76 48.307,84.616L48.307,84.616C48.129,84.476 47.942,84.348 47.748,84.232L47.748,84.232C47.591,84.139 47.427,84.057 47.256,83.993L47.256,83.993C47.148,83.952 47.036,83.925 46.921,83.914L46.9,83.912C46.683,83.893 46.464,83.882 46.245,83.88L46.245,83.88C46.245,83.88 46.244,83.88 46.244,83.88C46.042,83.879 45.841,83.89 45.64,83.913L45.64,83.913L45.64,83.913L45.639,83.913C45.477,83.931 45.316,83.965 45.16,84.013L45.16,84.013L45.16,84.013L45.16,84.013C44.974,84.071 44.792,84.141 44.615,84.223C44.615,84.223 44.615,84.223 44.615,84.223C44.615,84.223 44.615,84.223 44.615,84.223C44.477,84.287 44.347,84.367 44.226,84.458L44.226,84.459L44.226,84.459C44.226,84.459 44.226,84.459 44.226,84.459C44.073,84.575 43.928,84.701 43.794,84.837L43.794,84.837L43.794,84.837C43.794,84.837 43.794,84.838 43.794,84.838C43.635,84.999 43.482,85.165 43.335,85.337L43.335,85.337L43.335,85.337C43.188,85.509 43.046,85.685 42.908,85.866L42.908,85.866C42.765,86.053 42.625,86.243 42.488,86.435L42.488,86.435L42.488,86.435C42.356,86.62 42.251,86.826 42.15,87.03L42.13,87.071C42.079,87.173 42.031,87.273 41.999,87.379C42,87.401 42.003,87.423 42.005,87.444C42.022,87.608 42.047,87.77 42.073,87.932L42.073,87.933C42.141,88.345 42.205,88.759 42.262,89.173C42.299,89.433 42.321,89.697 42.298,89.959C42.269,90.281 42.168,90.595 41.993,90.867C41.65,91.4 41.055,91.716 40.439,91.729L40.438,91.729L40.437,91.729L40.432,91.729L40.431,91.729C40.261,91.733 40.088,91.713 39.916,91.667L39.916,91.667L39.915,91.667L39.911,91.665L39.907,91.664L39.907,91.664L39.905,91.664L39.899,91.662L39.898,91.662L39.897,91.662L39.894,91.661L39.888,91.659L39.888,91.659L39.884,91.658L39.877,91.656L39.877,91.656L39.874,91.655L39.867,91.653L39.867,91.653L39.867,91.653C39.293,91.483 38.848,91.071 38.512,90.589L38.511,90.587L38.511,90.587L38.511,90.587C38.511,90.587 38.51,90.586 38.51,90.586C38.316,90.308 38.144,90.013 38.003,89.704C37.887,89.45 37.781,89.192 37.68,88.932L37.68,88.93C37.554,88.603 37.442,88.27 37.34,87.935L37.329,87.901C37.221,87.546 37.121,87.19 37.026,86.832C37.026,86.832 37.026,86.831 37.026,86.831C36.878,86.273 36.745,85.71 36.611,85.148L36.611,85.147C36.492,84.644 36.375,84.141 36.242,83.641C36.192,83.451 36.133,83.261 36.056,83.079L36.056,83.079L36.056,83.079C35.942,82.813 35.838,82.543 35.749,82.267C35.749,82.267 35.746,82.258 35.746,82.258L35.746,82.257C35.546,81.625 35.58,80.943 36.015,80.401C36.11,80.283 36.22,80.177 36.343,80.087C36.689,79.833 37.117,79.715 37.545,79.756L37.545,79.756C38.007,79.8 38.417,80.028 38.723,80.366C39.163,80.66 39.423,81.142 39.447,81.65C39.469,81.714 39.489,81.779 39.508,81.844L39.508,81.845C39.585,82.108 39.664,82.37 39.746,82.631L39.746,82.631L39.746,82.631C39.869,83.028 39.983,83.428 40.094,83.828C40.225,83.593 40.37,83.365 40.526,83.146L40.526,83.146C40.526,83.146 40.526,83.146 40.526,83.146L40.527,83.144C40.726,82.865 40.943,82.599 41.175,82.347L41.175,82.346L41.175,82.346C41.429,82.07 41.707,81.814 42.002,81.582L42.002,81.582C42.296,81.35 42.609,81.141 42.936,80.958L42.943,80.954L42.943,80.954C43.268,80.773 43.606,80.616 43.955,80.485L43.956,80.485L43.956,80.485L43.956,80.485L43.959,80.484C44.323,80.347 44.699,80.242 45.081,80.172L45.116,80.165C45.227,80.145 45.338,80.128 45.45,80.113C45.303,79.644 45.24,79.149 45.24,78.659L45.24,78.659L45.24,78.659C45.239,77.807 45.264,76.955 45.339,76.106L45.339,76.106C45.392,75.506 45.416,74.902 45.396,74.3L45.396,74.299C45.376,73.696 45.376,73.092 45.394,72.489C45.074,72.516 44.755,72.56 44.437,72.602L44.436,72.602L44.435,72.602C44.089,72.648 43.727,72.685 43.391,72.786C43.391,72.786 43.391,72.786 43.391,72.786C43.391,72.786 43.391,72.786 43.391,72.786C43.096,72.875 42.803,72.971 42.51,73.07L42.51,73.07L42.51,73.07C42.277,73.149 42.044,73.228 41.808,73.299C41.847,73.744 41.889,74.189 41.932,74.635L41.932,74.635C41.978,75.107 42.028,75.579 42.096,76.049C42.116,76.182 42.137,76.316 42.164,76.448C42.17,76.472 42.175,76.497 42.181,76.522C42.337,76.949 42.335,77.428 42.148,77.849C41.941,78.315 41.532,78.663 41.038,78.792L41.038,78.792C40.184,79.017 39.316,78.529 38.999,77.742L38.999,77.742L38.999,77.742L38.999,77.741L38.997,77.736L38.995,77.732L38.995,77.731L38.995,77.731L38.995,77.73C38.971,77.671 38.951,77.609 38.934,77.546C38.934,77.546 38.934,77.546 38.934,77.546L38.934,77.546C38.934,77.546 38.932,77.542 38.932,77.542C38.84,77.198 38.8,76.839 38.76,76.486L38.76,76.485C38.698,75.948 38.665,75.408 38.641,74.868L38.641,74.867L38.64,74.866C38.622,74.445 38.603,74.023 38.558,73.604L38.558,73.604C38.534,73.38 38.509,73.157 38.482,72.934C38.34,72.624 38.302,72.281 38.363,71.955C38.346,71.824 38.33,71.692 38.314,71.56C38.203,70.663 38.841,69.846 39.738,69.735C40.013,69.701 40.28,69.737 40.522,69.83Z"/>
        </g>
    </g>
</svg>
