<?xml version="1.0" encoding="UTF-8" standalone="no"?>
<!DOCTYPE svg PUBLIC "-//W3C//DTD SVG 1.1//EN" "http://www.w3.org/Graphics/SVG/1.1/DTD/svg11.dtd">
<svg width="100%" height="100%" viewBox="0 0 24 24" version="1.1" xmlns="http://www.w3.org/2000/svg" xmlns:xlink="http://www.w3.org/1999/xlink" xml:space="preserve" xmlns:serif="http://www.serif.com/" style="fill-rule:evenodd;clip-rule:evenodd;stroke-linejoin:round;stroke-miterlimit:2;">
    <g transform="matrix(1,0,0,1,-238,-68)">
        <g id="Ebene1">
        </g>
        <g>
            <path d="M249.441,70.568L249.441,70.568C249.921,70.437 250.431,70.432 250.925,70.451L250.925,70.451C251.37,70.468 251.837,70.486 252.263,70.629L252.269,70.631C252.492,70.707 252.708,70.8 252.916,70.91L252.916,70.91L252.916,70.91C253.148,71.033 253.368,71.181 253.567,71.353L253.568,71.354C253.778,71.536 253.963,71.746 254.117,71.978C254.119,71.981 254.121,71.984 254.122,71.986C254.414,72.433 254.498,72.974 254.519,73.497L254.519,73.497L254.519,73.497C254.533,73.858 254.536,74.222 254.488,74.58L254.488,74.58L254.488,74.58L254.488,74.58C254.451,74.86 254.389,75.136 254.303,75.405L254.303,75.406L254.3,75.416C254.3,75.416 254.3,75.417 254.3,75.417L254.3,75.417C254.206,75.711 254.081,75.995 253.927,76.264L253.927,76.264L253.927,76.264L253.927,76.264C253.786,76.51 253.624,76.744 253.446,76.965L253.444,76.967L253.444,76.967C253.275,77.177 253.093,77.376 252.9,77.564C252.9,77.564 252.9,77.564 252.9,77.564L252.9,77.564L252.9,77.564C252.664,77.792 252.404,77.995 252.123,78.163L252.122,78.164L252.122,78.164C251.854,78.324 251.57,78.456 251.273,78.552L251.271,78.552C251.271,78.552 251.27,78.553 251.27,78.553C250.934,78.661 250.58,78.717 250.227,78.711L250.22,78.711C250.22,78.711 250.22,78.711 250.22,78.711L250.22,78.711C250.22,78.711 250.217,78.711 250.217,78.711C249.9,78.705 249.583,78.656 249.28,78.56L249.28,78.56L249.279,78.56C248.961,78.46 248.659,78.307 248.392,78.105L248.392,78.105C248.389,78.103 248.386,78.1 248.383,78.098C248.104,77.885 247.871,77.617 247.686,77.32L247.686,77.32L247.686,77.32L247.686,77.32C247.686,77.32 247.681,77.312 247.681,77.312L247.679,77.309C247.465,76.962 247.333,76.569 247.219,76.18L247.219,76.18C247.097,75.763 246.994,75.324 247.024,74.887L247.024,74.886C247.043,74.61 247.083,74.336 247.126,74.063L247.126,74.062C247.158,73.858 247.19,73.653 247.226,73.449C247.102,72.784 247.404,72.117 247.726,71.545C247.726,71.545 247.726,71.545 247.726,71.545C248.01,71.041 248.522,70.746 249.059,70.715C249.179,70.655 249.303,70.606 249.431,70.571L249.432,70.571L249.441,70.568L249.441,70.568L249.441,70.568ZM250.471,73.341C250.304,73.628 250.116,73.917 249.882,74.155C249.898,74.325 249.913,74.496 249.943,74.664L249.951,74.705C249.935,74.624 249.945,74.672 249.965,74.72C250.007,74.816 250.055,74.908 250.104,75L250.104,75C250.133,75.055 250.163,75.111 250.195,75.165L250.208,75.158C250.274,75.102 250.337,75.045 250.399,74.985L250.399,74.985C250.399,74.985 250.399,74.985 250.399,74.985C250.399,74.985 250.399,74.985 250.399,74.985L250.4,74.984C250.499,74.887 250.595,74.786 250.685,74.68L250.685,74.68L250.685,74.68C250.76,74.591 250.831,74.498 250.895,74.401L250.896,74.4C250.948,74.32 250.994,74.237 251.034,74.15L251.034,74.15C251.076,74.059 251.111,73.965 251.139,73.87L251.139,73.87C251.186,73.71 251.206,73.54 251.228,73.375C251.092,73.362 250.956,73.356 250.819,73.352L250.766,73.35C250.668,73.346 250.57,73.343 250.471,73.341ZM249.951,74.704L249.951,74.705L249.951,74.704L249.951,74.704Z"/>
            <clipPath id="_clip1">
                <rect x="241.489" y="80.995" width="7.891" height="8.546"/>
            </clipPath>
            <g clip-path="url(#_clip1)">
                <path d="M242.82,82.692C243.072,82.093 243.602,81.654 244.122,81.29C244.122,81.29 244.122,81.29 244.122,81.29C244.765,80.841 245.619,80.918 246.172,81.431C246.523,81.465 246.876,81.524 247.2,81.662L247.2,81.662L247.2,81.662C247.443,81.766 247.675,81.896 247.892,82.047L247.892,82.047C248.122,82.207 248.334,82.393 248.521,82.602L248.521,82.602C248.666,82.763 248.804,82.932 248.93,83.109L248.936,83.117C249.235,83.542 249.334,84.068 249.356,84.578L249.356,84.579C249.373,84.953 249.371,85.334 249.3,85.704C249.299,85.707 249.298,85.711 249.298,85.714L249.297,85.719C249.22,86.104 249.066,86.47 248.858,86.802L248.858,86.802L248.858,86.802C248.716,87.028 248.561,87.246 248.396,87.457L248.38,87.477C248.163,87.753 247.915,88.005 247.644,88.227L247.643,88.227L247.643,88.227C247.435,88.397 247.221,88.56 247.002,88.716L246.981,88.731C246.705,88.927 246.413,89.101 246.106,89.243L246.105,89.244L246.105,89.244C245.58,89.486 244.992,89.538 244.421,89.487L244.413,89.486C244.413,89.486 244.413,89.486 244.413,89.486L244.413,89.486C244.413,89.486 244.412,89.486 244.412,89.486C243.971,89.446 243.519,89.377 243.116,89.182L243.115,89.182L243.106,89.177L243.104,89.177C242.743,89 242.426,88.739 242.176,88.425C241.987,88.188 241.828,87.926 241.709,87.647L241.709,87.647L241.709,87.647L241.709,87.647L241.709,87.647C241.568,87.313 241.496,86.952 241.492,86.59L241.492,86.59C241.488,86.254 241.533,85.918 241.583,85.587L241.583,85.587C241.639,85.215 241.713,84.837 241.86,84.489L241.86,84.488L241.864,84.48L241.864,84.48L241.864,84.48L241.864,84.48L241.864,84.48C241.923,84.342 241.979,84.202 242.031,84.061L242.031,84.061C242.117,83.832 242.22,83.61 242.34,83.398L242.34,83.398C242.468,83.171 242.617,82.956 242.788,82.759L242.788,82.759C242.776,82.774 242.81,82.714 242.815,82.702C242.817,82.699 242.818,82.696 242.82,82.692ZM245.841,84.084C245.545,84.289 245.238,84.491 244.91,84.639C244.878,84.689 244.847,84.741 244.817,84.793L244.805,84.815C244.745,84.924 244.688,85.035 244.636,85.148L244.634,85.151C244.627,85.168 244.623,85.185 244.621,85.203L244.621,85.203C244.602,85.375 244.618,85.556 244.628,85.728L244.63,85.763C244.636,85.872 244.641,85.983 244.651,86.092L244.655,86.093C244.728,86.096 244.777,86.092 244.832,86.08C244.913,86.041 244.99,85.995 245.064,85.945L245.064,85.945C245.218,85.843 245.366,85.735 245.509,85.618L245.509,85.618L245.509,85.618L245.509,85.618L245.509,85.618C245.632,85.517 245.749,85.409 245.859,85.294L245.859,85.294C245.932,85.216 246.001,85.133 246.058,85.043L246.058,85.043L246.058,85.043C246.058,85.043 246.058,85.042 246.058,85.042C246.136,84.918 246.212,84.793 246.285,84.667C246.326,84.57 246.348,84.472 246.368,84.366L246.368,84.366L246.368,84.366C246.374,84.331 246.38,84.297 246.384,84.263C246.355,84.236 246.324,84.21 246.292,84.184C246.26,84.158 246.226,84.134 246.19,84.114C246.162,84.106 246.134,84.101 246.1,84.097C246.02,84.089 245.94,84.086 245.86,84.084L245.841,84.084ZM242.788,82.759L242.788,82.759C242.788,82.759 242.788,82.759 242.788,82.759Z"/>
            </g>
            <clipPath id="_clip2">
                <rect x="251.566" y="81.029" width="8.209" height="9.25"/>
            </clipPath>
            <g clip-path="url(#_clip2)">
                <path d="M253.771,81.768C254.264,81.337 254.908,81.125 255.549,81.042C256.101,80.971 256.625,81.185 256.973,81.569C257.236,81.662 257.498,81.764 257.745,81.894L257.745,81.894L257.745,81.894C257.949,82.001 258.148,82.117 258.341,82.243C258.611,82.418 258.851,82.636 259.054,82.885L259.054,82.885C259.259,83.136 259.425,83.418 259.551,83.717L259.553,83.721C259.741,84.173 259.774,84.677 259.771,85.16L259.771,85.16L259.771,85.162C259.769,85.542 259.762,85.927 259.707,86.304L259.705,86.319C259.657,86.639 259.571,86.952 259.45,87.252L259.439,87.277C259.33,87.541 259.201,87.795 259.055,88.04L259.054,88.043L259.053,88.044C258.898,88.305 258.723,88.553 258.532,88.788L258.527,88.794L258.527,88.794C258.304,89.067 258.05,89.314 257.769,89.527C257.445,89.772 257.08,89.962 256.689,90.077C256.686,90.078 256.682,90.08 256.679,90.081L256.679,90.081C256.679,90.081 256.678,90.081 256.678,90.081C256.378,90.168 256.068,90.226 255.756,90.251L255.755,90.251L255.755,90.251C255.451,90.275 255.144,90.27 254.841,90.235L254.84,90.235C254.84,90.235 254.84,90.235 254.84,90.235L254.84,90.235C254.84,90.235 254.83,90.233 254.83,90.233L254.829,90.233C254.426,90.184 254.034,90.06 253.676,89.868L253.666,89.863L253.666,89.863C253.337,89.686 253.037,89.459 252.775,89.194L252.775,89.194L252.775,89.193C252.775,89.193 252.77,89.189 252.77,89.189L252.77,89.188C252.525,88.938 252.313,88.657 252.137,88.355L252.137,88.355L252.137,88.355C252.137,88.355 252.134,88.35 252.134,88.35C251.944,88.024 251.8,87.672 251.705,87.307L251.705,87.307C251.705,87.307 251.705,87.307 251.705,87.307L251.705,87.307C251.705,87.307 251.703,87.299 251.703,87.299C251.58,86.822 251.576,86.322 251.603,85.834L251.603,85.834C251.603,85.834 251.603,85.834 251.603,85.834L251.603,85.832C251.625,85.444 251.652,85.052 251.732,84.672L251.732,84.672C251.786,84.413 251.857,84.158 251.95,83.911L251.95,83.911L251.95,83.911L251.95,83.911C252.057,83.626 252.201,83.356 252.375,83.106L252.376,83.106L252.376,83.106C252.552,82.854 252.76,82.623 252.999,82.428L253.04,82.394C253.135,82.316 253.23,82.236 253.324,82.156L253.324,82.156C253.473,82.03 253.619,81.901 253.766,81.772L253.766,81.772C253.766,81.772 253.766,81.772 253.766,81.772L253.771,81.768ZM256.682,84.018C256.475,84.16 256.232,84.256 255.966,84.29L255.966,84.29C255.724,84.321 255.48,84.355 255.242,84.407C255.211,84.475 255.182,84.544 255.154,84.613C255.154,84.613 255.154,84.613 255.154,84.613L255.154,84.613C255.154,84.613 255.154,84.613 255.154,84.613C255.114,84.712 255.079,84.812 255.052,84.914L255.052,84.914C255.035,84.974 255.03,85.037 255.027,85.099C255.015,85.336 255.036,85.578 255.052,85.815C255.052,85.815 255.052,85.815 255.052,85.815C255.059,85.931 255.069,86.047 255.09,86.161C255.097,86.202 255.115,86.249 255.088,86.183L255.099,86.21C255.145,86.319 255.198,86.425 255.258,86.527L255.258,86.527C255.286,86.576 255.318,86.623 255.357,86.663C255.38,86.686 255.405,86.706 255.432,86.723L255.433,86.723L255.433,86.723C255.48,86.751 255.53,86.774 255.583,86.79C255.692,86.825 255.803,86.852 255.915,86.872C255.917,86.872 255.919,86.872 255.921,86.872L255.923,86.871L255.923,86.871L255.923,86.871L255.923,86.871C255.923,86.871 255.924,86.871 255.924,86.871C255.966,86.863 256.006,86.845 256.044,86.825L256.044,86.824C256.158,86.764 256.264,86.692 256.364,86.612L256.364,86.612C256.462,86.534 256.551,86.446 256.629,86.349L256.629,86.349C256.715,86.244 256.793,86.132 256.859,86.013L256.859,86.013C256.934,85.878 256.999,85.739 257.056,85.596C257.111,85.456 257.122,85.214 257.135,85.047L257.135,85.047C257.135,85.047 257.135,85.046 257.135,85.046C257.146,84.918 257.153,84.789 257.15,84.661C257.15,84.635 257.141,84.525 257.144,84.538L257.142,84.531C257.123,84.46 257.095,84.391 257.055,84.329L257.051,84.323C257.009,84.258 256.959,84.197 256.9,84.146L256.9,84.146L256.9,84.146L256.9,84.146L256.9,84.146C256.848,84.099 256.787,84.063 256.723,84.036L256.723,84.036L256.723,84.036L256.723,84.036C256.709,84.03 256.696,84.024 256.682,84.018ZM255.088,86.183L255.089,86.184L255.088,86.183L255.088,86.183Z"/>
            </g>
        </g>
    </g>
</svg>
