<?xml version="1.0" encoding="UTF-8" standalone="no"?>
<!DOCTYPE svg PUBLIC "-//W3C//DTD SVG 1.1//EN" "http://www.w3.org/Graphics/SVG/1.1/DTD/svg11.dtd">
<svg width="100%" height="100%" viewBox="0 0 24 24" version="1.1" xmlns="http://www.w3.org/2000/svg" xmlns:xlink="http://www.w3.org/1999/xlink" xml:space="preserve" xmlns:serif="http://www.serif.com/" style="fill-rule:evenodd;clip-rule:evenodd;stroke-linejoin:round;stroke-miterlimit:2;">
    <g transform="matrix(1,0,0,1,-306,-68)">
        <g id="Ebene1">
        </g>
        <g>
            <path d="M315.287,70.761L315.291,70.761C315.871,70.731 316.457,70.717 317.036,70.78L317.037,70.78C317.435,70.824 317.831,70.883 318.224,70.958L318.225,70.958C318.602,71.03 318.977,71.111 319.349,71.202L319.351,71.203C319.781,71.308 320.205,71.441 320.617,71.602L320.619,71.602C320.946,71.73 321.271,71.863 321.593,72.002L321.594,72.002C322.074,72.209 322.535,72.46 322.989,72.718L322.989,72.718C323.491,73.003 323.997,73.307 324.421,73.703L324.433,73.714C324.641,73.91 324.842,74.113 325.033,74.325L325.035,74.326C325.284,74.602 325.506,74.903 325.691,75.226L325.696,75.235C325.881,75.56 326.029,75.905 326.137,76.263L326.137,76.264L326.137,76.264L326.142,76.279C326.234,76.59 326.301,76.909 326.347,77.231L326.348,77.238L326.348,77.238C326.411,77.693 326.421,78.155 326.429,78.613C326.439,79.145 326.432,79.685 326.336,80.209L326.331,80.234C326.26,80.613 326.158,80.985 326.026,81.347L326.026,81.347C325.895,81.707 325.736,82.056 325.559,82.395L325.556,82.401L325.551,82.41C325.37,82.754 325.17,83.087 324.953,83.409L324.931,83.442C324.7,83.78 324.445,84.102 324.172,84.408L324.172,84.408L324.172,84.408L324.172,84.408C323.903,84.708 323.621,84.996 323.326,85.27L323.326,85.27C323.326,85.27 323.326,85.27 323.326,85.27L323.326,85.27C323.042,85.535 322.749,85.792 322.45,86.04L322.448,86.041C322.126,86.309 321.793,86.563 321.45,86.805C321.082,87.065 320.699,87.306 320.305,87.526C319.893,87.757 319.466,87.962 319.028,88.138L318.992,88.153C318.625,88.3 318.254,88.436 317.878,88.561L317.878,88.561L317.878,88.561C317.533,88.675 317.187,88.783 316.838,88.884L316.838,88.884L316.837,88.884C316.475,88.988 316.108,89.078 315.736,89.143L315.734,89.144L315.732,89.144C315.259,89.227 314.778,89.25 314.3,89.248L314.298,89.248C314.298,89.248 314.298,89.248 314.298,89.248L314.298,89.248C314.298,89.248 314.282,89.248 314.282,89.248L314.282,89.248C313.897,89.246 313.511,89.206 313.139,89.105C312.413,88.907 311.763,88.46 311.379,87.807L311.378,87.806L311.378,87.806L311.376,87.802L311.372,87.795L311.37,87.792L311.369,87.791L311.367,87.786L311.364,87.781L311.362,87.778L311.361,87.776L311.358,87.77L311.355,87.766L311.354,87.764L311.352,87.76L311.349,87.754L311.347,87.751L311.346,87.75L311.344,87.746L311.34,87.738L311.339,87.736L311.338,87.736L311.337,87.733L311.331,87.722L311.331,87.722L311.331,87.721L311.331,87.721C311.327,87.714 311.323,87.707 311.319,87.699L311.318,87.698L311.318,87.698L311.318,87.697L311.314,87.69L311.312,87.686L311.312,87.686L311.311,87.685L311.309,87.679L311.306,87.675L311.306,87.674L311.305,87.672L311.303,87.668L311.3,87.663L311.299,87.661L311.299,87.66L311.297,87.657L311.294,87.651L311.293,87.649L311.293,87.647L311.291,87.645L311.288,87.639L311.287,87.636L311.286,87.635L311.286,87.633L311.283,87.627L311.281,87.623L311.28,87.622L311.28,87.621L311.277,87.615L311.275,87.61L311.274,87.61L311.274,87.609L311.271,87.603L311.268,87.598L311.268,87.597L311.268,87.597C311.247,87.551 311.227,87.505 311.208,87.458C311.026,86.999 310.979,86.489 311.08,86.003C311.208,85.392 311.562,84.85 312.07,84.487L312.07,84.487C312.334,84.299 312.633,84.163 312.947,84.086L312.947,84.086L312.948,84.086L312.954,84.085L312.961,84.083L312.963,84.082L312.966,84.082L312.972,84.08L312.976,84.079L312.979,84.079L312.985,84.077L312.99,84.076L312.992,84.076L312.994,84.075L313.005,84.073L313.008,84.072L313.009,84.072C313.02,84.069 313.032,84.067 313.044,84.065L313.044,84.065L313.046,84.064L313.057,84.062L313.061,84.061L313.062,84.061L313.065,84.06L313.073,84.059L313.078,84.058L313.08,84.057L313.083,84.057L313.089,84.056L313.095,84.055L313.099,84.054L313.101,84.054L313.105,84.053L313.113,84.052L313.117,84.051L313.118,84.051L313.121,84.05L313.131,84.049L313.135,84.048L313.136,84.048C313.142,84.047 313.147,84.046 313.153,84.045C313.153,84.045 313.153,84.045 313.153,84.045C313.157,84.044 313.162,84.044 313.166,84.043C313.461,83.997 313.761,83.972 314.059,83.944L314.059,83.944C314.308,83.921 314.558,83.895 314.804,83.852L314.804,83.852C315.035,83.812 315.264,83.762 315.492,83.709L315.492,83.709C315.764,83.646 316.034,83.574 316.302,83.496L316.302,83.496C316.598,83.41 316.891,83.316 317.183,83.214L317.183,83.214C317.459,83.119 317.731,83.011 317.999,82.894L317.999,82.894C318.269,82.775 318.534,82.646 318.794,82.507L318.795,82.507C319.022,82.385 319.242,82.251 319.454,82.103L319.454,82.103L319.454,82.103C319.693,81.938 319.926,81.765 320.154,81.584L320.154,81.584C320.312,81.458 320.461,81.321 320.598,81.172L320.599,81.171L320.599,81.171L320.599,81.171L320.6,81.17C320.759,80.997 320.911,80.816 321.052,80.628L321.052,80.628C321.159,80.485 321.256,80.334 321.34,80.176L321.341,80.175C321.422,80.022 321.497,79.865 321.558,79.703L321.558,79.702C321.596,79.601 321.626,79.497 321.648,79.391C321.657,79.324 321.665,79.256 321.668,79.186C321.676,79.023 321.675,78.861 321.673,78.699L321.672,78.651C321.669,78.412 321.671,78.161 321.636,77.928C321.621,77.834 321.602,77.74 321.575,77.648C321.572,77.644 321.568,77.639 321.565,77.637L321.565,77.637L321.565,77.636C321.533,77.605 321.495,77.579 321.457,77.555L321.429,77.537C321.139,77.356 320.841,77.189 320.544,77.021C320.544,77.021 320.544,77.021 320.544,77.021L320.544,77.021L320.544,77.021C320.212,76.832 319.88,76.644 319.537,76.477L319.537,76.477L319.537,76.477C319.307,76.364 319.073,76.263 318.835,76.17L318.835,76.169L318.835,76.169L318.835,76.169L318.835,76.169L318.833,76.169C318.548,76.057 318.26,75.951 317.97,75.85C317.711,75.759 317.448,75.679 317.182,75.61L317.181,75.61L317.181,75.61L317.181,75.61L317.181,75.61L317.179,75.609C316.885,75.533 316.589,75.463 316.292,75.399L316.292,75.399L316.292,75.399L316.292,75.399C315.939,75.323 315.575,75.292 315.216,75.262L315.214,75.261L315.214,75.261L315.214,75.261L315.213,75.261C314.7,75.217 314.187,75.173 313.673,75.13L313.624,75.126C313.38,75.106 313.131,75.089 312.886,75.106L312.884,75.106C312.65,75.122 312.415,75.14 312.18,75.143C311.482,75.154 310.854,74.721 310.616,74.065L310.616,74.065C310.408,73.493 310.504,72.848 310.819,72.334C311.078,71.911 311.472,71.585 311.92,71.377L311.923,71.376L311.934,71.371L311.934,71.371C312.438,71.14 312.985,71.013 313.531,70.93L313.533,70.93L313.533,70.93C314.114,70.842 314.7,70.792 315.287,70.761Z"/>
        </g>
    </g>
</svg>
