<?xml version="1.0" encoding="UTF-8" standalone="no"?>
<!DOCTYPE svg PUBLIC "-//W3C//DTD SVG 1.1//EN" "http://www.w3.org/Graphics/SVG/1.1/DTD/svg11.dtd">
<svg width="100%" height="100%" viewBox="0 0 24 24" version="1.1" xmlns="http://www.w3.org/2000/svg" xmlns:xlink="http://www.w3.org/1999/xlink" xml:space="preserve" xmlns:serif="http://www.serif.com/" style="fill-rule:evenodd;clip-rule:evenodd;stroke-linejoin:round;stroke-miterlimit:2;">
    <g transform="matrix(1,0,0,1,-340,-68)">
        <g id="Ebene1">
        </g>
        <g>
            <path d="M351.727,78.125L351.738,78.061L351.738,78.061L351.738,78.061C351.738,78.061 351.738,78.06 351.738,78.06C351.805,77.66 351.916,77.269 352.047,76.887L352.047,76.887L352.047,76.887C352.248,76.302 352.575,75.766 352.937,75.269C352.937,75.269 352.937,75.269 352.937,75.269C353.17,74.95 353.497,74.739 353.852,74.648C353.98,74.556 354.123,74.484 354.284,74.437C354.288,74.435 354.292,74.434 354.296,74.433C354.296,74.433 354.304,74.431 354.304,74.431L354.305,74.431C354.603,74.348 354.919,74.334 355.227,74.326L355.23,74.326C355.533,74.318 355.837,74.32 356.139,74.352C356.438,74.384 356.734,74.451 357.02,74.541L357.021,74.541C357.263,74.617 357.503,74.7 357.741,74.788L357.741,74.788C358.045,74.902 358.34,75.041 358.625,75.197L358.625,75.197C358.899,75.347 359.166,75.509 359.422,75.686L359.423,75.686C359.727,75.896 360.007,76.14 360.258,76.411L360.259,76.412C360.49,76.66 360.702,76.926 360.887,77.211L360.887,77.211C361.127,77.58 361.299,77.992 361.385,78.424L361.387,78.436L361.387,78.436L361.388,78.441C361.463,78.824 361.481,79.218 361.455,79.607L361.454,79.614L361.455,79.614C361.432,79.934 361.392,80.252 361.333,80.568L361.332,80.575C361.332,80.575 361.332,80.575 361.332,80.575L361.332,80.575C361.332,80.575 361.33,80.585 361.33,80.585L361.33,80.587C361.25,81.01 361.109,81.422 360.916,81.806L360.915,81.808L360.915,81.808C360.741,82.154 360.534,82.483 360.303,82.794L360.303,82.794L360.303,82.795C360.084,83.091 359.848,83.374 359.599,83.645C359.599,83.645 359.597,83.646 359.597,83.646C359.334,83.932 359.052,84.199 358.752,84.446L358.752,84.446L358.752,84.447C358.752,84.447 358.751,84.447 358.751,84.447C358.478,84.671 358.193,84.882 357.896,85.075L357.867,85.094C357.518,85.32 357.146,85.51 356.757,85.657L356.757,85.657L356.757,85.657L356.757,85.657C356.757,85.657 356.756,85.657 356.756,85.657C356.409,85.789 356.051,85.893 355.685,85.957L355.683,85.957C355.683,85.957 355.683,85.957 355.683,85.957L355.683,85.957L355.683,85.957C355.301,86.023 354.91,86.04 354.524,86.007L354.523,86.007C354.523,86.007 354.523,86.007 354.523,86.007L354.523,86.007C354.523,86.007 354.521,86.007 354.521,86.007C354.19,85.978 353.86,85.921 353.542,85.825L353.542,85.825C353.538,85.824 353.535,85.823 353.532,85.822C353.135,85.701 352.762,85.505 352.446,85.235L352.446,85.235L352.444,85.233L352.438,85.228L352.438,85.228L352.434,85.224C352.203,85.024 351.998,84.795 351.822,84.547C351.619,84.261 351.463,83.944 351.353,83.611C351.352,83.608 351.351,83.605 351.35,83.601L351.347,83.592L351.346,83.591C351.235,83.246 351.178,82.885 351.17,82.524L351.17,82.518L351.17,82.518L351.17,82.518L351.17,82.518L351.17,82.513C351.168,82.432 351.168,82.351 351.17,82.269C351.067,82.295 350.963,82.316 350.857,82.329L350.855,82.33C350.855,82.33 350.855,82.33 350.855,82.33L350.854,82.33L350.854,82.33C350.462,82.38 350.062,82.376 349.666,82.37C349.1,82.362 348.534,82.337 347.969,82.308L347.861,82.302C347.319,82.274 346.778,82.241 346.239,82.191C345.836,82.154 345.43,82.112 345.034,82.023C345.034,82.023 345.034,82.023 345.034,82.023C344.564,81.918 344.076,81.794 343.667,81.53L343.667,81.53L343.656,81.523L343.654,81.522C342.965,81.07 342.678,80.26 342.808,79.464C342.893,78.942 343.225,78.494 343.7,78.26C344.225,78.001 344.822,78.05 345.286,78.337C346.178,78.245 347.078,78.213 347.973,78.17L347.973,78.17L347.973,78.17C348.502,78.144 349.03,78.117 349.558,78.082C349.807,78.066 350.057,78.053 350.305,78.022L350.305,78.022C350.779,77.961 351.261,78.024 351.727,78.125ZM355.683,77.043C355.653,77.096 355.62,77.147 355.584,77.197L355.584,77.197C355.361,77.503 355.142,77.816 354.965,78.15L354.964,78.152L354.964,78.152L354.963,78.152C354.837,78.391 354.716,78.633 354.613,78.883L354.613,78.883L354.613,78.883C354.523,79.102 354.446,79.325 354.378,79.552L354.378,79.553C354.378,79.553 354.378,79.553 354.378,79.553L354.378,79.553C354.378,79.553 354.378,79.554 354.378,79.554C354.318,79.754 354.276,79.96 354.252,80.168L354.25,80.191C354.223,80.435 354.208,80.679 354.203,80.924L354.203,80.926C354.203,80.926 354.203,80.927 354.203,80.927C354.198,81.155 354.203,81.384 354.223,81.612L354.223,81.613C354.242,81.816 354.266,82.019 354.3,82.22L354.3,82.22C354.308,82.266 354.319,82.314 354.338,82.358C354.45,82.368 354.564,82.371 354.677,82.371L354.677,82.371C354.766,82.371 354.854,82.36 354.94,82.339L354.941,82.339C355.059,82.311 355.172,82.263 355.281,82.211L355.281,82.211L355.281,82.211C355.455,82.128 355.621,82.031 355.781,81.924L355.781,81.924C355.97,81.797 356.153,81.66 356.328,81.514L356.329,81.514C356.496,81.375 356.653,81.225 356.8,81.065L356.8,81.065C356.95,80.902 357.091,80.73 357.221,80.55L357.221,80.55C357.221,80.55 357.221,80.55 357.221,80.55C357.325,80.404 357.421,80.253 357.501,80.093L357.501,80.093L357.501,80.093C357.501,80.093 357.501,80.093 357.501,80.093C357.589,79.918 357.669,79.739 357.739,79.557L357.739,79.557C357.765,79.49 357.781,79.42 357.787,79.349L357.787,79.349L357.787,79.349C357.787,79.349 357.787,79.347 357.787,79.347C357.803,79.13 357.822,78.914 357.844,78.698C357.82,78.655 357.791,78.615 357.76,78.577L357.76,78.577L357.76,78.577L357.76,78.577C357.645,78.434 357.521,78.297 357.389,78.169L357.389,78.169C357.389,78.169 357.389,78.169 357.389,78.169L357.389,78.169C357.389,78.169 357.388,78.168 357.388,78.168C357.264,78.047 357.127,77.939 356.985,77.84L356.985,77.839C356.779,77.696 356.574,77.552 356.369,77.409C356.369,77.409 356.368,77.409 356.368,77.409C356.239,77.319 356.102,77.237 355.961,77.167L355.949,77.161C355.862,77.118 355.774,77.078 355.683,77.043Z"/>
        </g>
    </g>
</svg>
