<?xml version="1.0" encoding="UTF-8" standalone="no"?>
<!DOCTYPE svg PUBLIC "-//W3C//DTD SVG 1.1//EN" "http://www.w3.org/Graphics/SVG/1.1/DTD/svg11.dtd">
<svg width="100%" height="100%" viewBox="0 0 24 24" version="1.1" xmlns="http://www.w3.org/2000/svg" xmlns:xlink="http://www.w3.org/1999/xlink" xml:space="preserve" xmlns:serif="http://www.serif.com/" style="fill-rule:evenodd;clip-rule:evenodd;stroke-linejoin:round;stroke-miterlimit:2;">
    <g transform="matrix(1,0,0,1,-374,-68)">
        <g id="Ebene1">
        </g>
        <g>
            <path d="M384.78,71.614C385.076,71.336 385.413,71.106 385.759,70.896L385.759,70.895C385.759,70.895 385.761,70.894 385.761,70.894C386.093,70.692 386.43,70.499 386.773,70.316L386.774,70.316C387.091,70.147 387.415,69.989 387.751,69.861L387.752,69.861L387.752,69.861C388.03,69.754 388.315,69.664 388.604,69.591L388.604,69.59C388.604,69.59 388.604,69.59 388.604,69.59C388.605,69.59 388.606,69.59 388.607,69.59L388.607,69.59C388.864,69.525 389.123,69.468 389.384,69.423L389.387,69.422C389.686,69.37 389.989,69.34 390.292,69.337L390.292,69.337L390.292,69.337C390.517,69.334 390.741,69.336 390.966,69.343L390.966,69.343L390.977,69.343C391.428,69.36 391.872,69.48 392.27,69.694L392.282,69.701C392.567,69.855 392.833,70.044 393.073,70.262L393.085,70.272C393.256,70.429 393.421,70.593 393.579,70.765L393.58,70.766C393.772,70.975 393.944,71.2 394.094,71.44L394.094,71.44C394.205,71.617 394.311,71.798 394.411,71.981L394.413,71.984C394.579,72.287 394.701,72.615 394.773,72.954L394.773,72.954C394.825,73.199 394.861,73.447 394.882,73.697L394.882,73.697C394.906,73.977 394.905,74.26 394.881,74.54L394.88,74.557C394.849,74.904 394.769,75.246 394.65,75.573L394.647,75.581L394.646,75.582L394.644,75.588C394.53,75.898 394.384,76.195 394.21,76.476L394.209,76.479L394.209,76.479C393.999,76.817 393.738,77.123 393.44,77.387C393.251,77.554 393.057,77.717 392.86,77.875L392.859,77.875C392.859,77.875 392.858,77.876 392.858,77.876C392.54,78.13 392.183,78.332 391.802,78.476C391.802,78.476 391.802,78.476 391.802,78.476L391.802,78.476L391.802,78.476C391.566,78.565 391.327,78.649 391.086,78.725L391.084,78.726L391.081,78.727C390.722,78.841 390.348,78.906 389.972,78.915C389.623,78.922 389.272,78.907 388.923,78.89C388.923,78.89 388.922,78.89 388.922,78.89C388.301,78.86 387.737,78.597 387.266,78.213C387.262,78.667 387.255,79.121 387.244,79.575L387.244,79.576C387.244,79.576 387.244,79.577 387.244,79.577C387.239,79.772 387.234,79.968 387.229,80.163C387.465,80.418 387.675,80.699 387.872,80.983L387.872,80.983C388.18,81.427 388.558,81.823 388.941,82.202L388.942,82.203C389.615,82.868 390.242,83.579 390.847,84.306L390.847,84.306C391.272,84.817 391.719,85.321 392.102,85.866L392.102,85.866C392.197,86.001 392.294,86.136 392.396,86.267L392.396,86.267L392.396,86.267C392.835,86.833 392.99,87.678 392.635,88.325C392.587,88.412 392.531,88.494 392.466,88.569C392.262,88.804 392,88.963 391.714,89.051C390.952,89.665 390.022,90.081 389.07,90.258C388.331,90.396 387.59,90.533 386.845,90.638L386.844,90.638C386.361,90.706 385.877,90.77 385.392,90.83L385.391,90.831L385.386,90.831C384.681,90.919 383.965,90.902 383.257,90.843C383.257,90.843 383.257,90.843 383.257,90.843C382.599,90.787 381.933,90.705 381.298,90.518L381.298,90.518C380.88,90.395 380.466,90.224 380.104,89.977C379.88,90.002 379.651,89.989 379.429,89.943C379.086,89.873 378.761,89.732 378.458,89.558L378.458,89.558C377.674,89.107 377.404,88.106 377.855,87.322C378.039,87.003 378.313,86.769 378.627,86.634C379.167,85.675 379.761,84.736 380.477,83.901C380.477,83.9 380.477,83.9 380.477,83.9L380.478,83.899C380.907,83.398 381.335,82.897 381.778,82.408L381.778,82.408L381.778,82.408C381.778,82.408 381.779,82.407 381.779,82.407C381.996,82.169 382.21,81.928 382.418,81.681L382.418,81.681L382.418,81.681C382.605,81.458 382.794,81.236 382.984,81.015C382.987,81.012 382.99,81.009 382.992,81.007C383.272,80.684 383.608,80.413 383.962,80.174C383.967,79.951 383.971,79.728 383.975,79.505L383.975,79.505L383.975,79.505L383.975,79.505C383.984,79.065 383.989,78.624 383.993,78.184C383.76,78.365 383.52,78.538 383.275,78.702L383.275,78.702L383.275,78.703L383.275,78.703C382.89,78.961 382.483,79.185 382.058,79.371L382.058,79.371C382.058,79.371 382.058,79.371 382.058,79.371L382.058,79.372C382.058,79.372 382.053,79.374 382.053,79.374C381.577,79.582 381.068,79.72 380.549,79.755C380.545,79.756 380.541,79.756 380.538,79.756C380.116,79.784 379.692,79.766 379.275,79.696L379.275,79.696L379.275,79.696C378.871,79.628 378.476,79.512 378.104,79.343C378.104,79.343 378.103,79.342 378.103,79.342C377.765,79.189 377.445,78.999 377.152,78.77C377.152,78.77 377.152,78.77 377.152,78.77L377.152,78.77C376.874,78.553 376.62,78.304 376.397,78.031L376.384,78.016C376.125,77.695 375.924,77.327 375.806,76.932C375.805,76.928 375.804,76.925 375.803,76.922L375.801,76.914L375.801,76.914C375.7,76.571 375.649,76.213 375.655,75.856L375.655,75.856C375.659,75.548 375.694,75.241 375.764,74.941L375.764,74.941L375.764,74.941C375.764,74.941 375.765,74.937 375.765,74.937C375.841,74.609 375.966,74.295 376.133,74.003L376.133,74.003C376.133,74.003 376.133,74.003 376.133,74.003L376.134,74.001C376.283,73.741 376.458,73.496 376.649,73.266L376.649,73.266L376.649,73.266L376.649,73.266C376.854,73.018 377.082,72.79 377.325,72.58L377.325,72.58C377.529,72.404 377.733,72.229 377.937,72.054L377.94,72.051C378.208,71.821 378.493,71.61 378.79,71.418L378.79,71.418C379.063,71.242 379.343,71.076 379.63,70.923L379.63,70.923L379.63,70.923C380.007,70.722 380.415,70.578 380.838,70.513L380.84,70.513C381.145,70.466 381.452,70.44 381.76,70.445L381.762,70.445C382.034,70.449 382.306,70.472 382.575,70.516L382.576,70.516L382.576,70.516C382.882,70.567 383.183,70.652 383.468,70.776L383.468,70.777C383.697,70.877 383.919,70.994 384.128,71.131L384.131,71.133C384.334,71.266 384.528,71.413 384.718,71.564L384.72,71.565C384.74,71.581 384.76,71.597 384.78,71.614ZM384.752,83.633C384.693,83.683 384.634,83.734 384.575,83.785L384.575,83.785C384.361,83.975 384.163,84.184 383.97,84.396C383.97,84.396 383.97,84.396 383.97,84.396L383.97,84.396C383.545,84.865 383.134,85.346 382.722,85.826L382.704,85.848C382.321,86.292 381.902,86.704 381.462,87.094C381.513,87.088 381.563,87.082 381.614,87.077L381.614,87.077L381.614,87.077C382.178,87.019 382.744,86.983 383.309,86.95L383.357,86.948C383.859,86.918 384.361,86.88 384.858,86.81C385.266,86.753 385.671,86.675 386.071,86.579L386.071,86.579C386.071,86.579 386.071,86.579 386.071,86.579L386.073,86.578C386.61,86.449 387.152,86.339 387.695,86.235C387.224,85.61 386.769,84.973 386.343,84.317L386.343,84.317L386.343,84.317C386.234,84.148 386.123,83.98 386.009,83.814C385.974,83.833 385.938,83.851 385.9,83.866C385.494,84.034 385.043,83.928 384.752,83.633ZM381.611,73.568C381.46,73.556 381.307,73.558 381.156,73.566L381.156,73.566C381.056,73.572 380.958,73.601 380.864,73.636L380.864,73.636L380.864,73.636C380.695,73.701 380.533,73.786 380.381,73.884L380.381,73.884L380.381,73.884L380.381,73.884C380.154,74.031 379.929,74.181 379.708,74.336L379.708,74.336L379.707,74.337C379.524,74.465 379.346,74.6 379.176,74.744L379.162,74.756C379.018,74.878 378.88,75.007 378.749,75.143L378.749,75.143C378.648,75.248 378.553,75.359 378.47,75.479L378.466,75.485C378.447,75.514 378.431,75.547 378.423,75.581C378.423,75.581 378.422,75.582 378.422,75.582C378.395,75.69 378.383,75.802 378.38,75.913L378.38,75.915L378.38,75.915L378.38,75.915L378.38,75.915C378.378,75.96 378.389,76.003 378.404,76.044L378.404,76.044C378.436,76.128 378.487,76.204 378.544,76.273L378.544,76.273C378.58,76.317 378.624,76.355 378.675,76.381L378.675,76.381C378.802,76.446 378.938,76.493 379.076,76.526L379.076,76.526C379.213,76.56 379.355,76.57 379.495,76.567L379.495,76.567L379.495,76.567C379.718,76.561 379.941,76.538 380.161,76.501L380.162,76.501C380.318,76.475 380.467,76.412 380.607,76.339L380.607,76.339L380.607,76.339C380.852,76.212 381.086,76.065 381.309,75.902L381.309,75.902C381.532,75.738 381.747,75.561 381.948,75.369L381.948,75.369C381.948,75.369 381.948,75.369 381.948,75.369L381.948,75.369C382.138,75.187 382.32,74.997 382.491,74.796L382.491,74.796C382.62,74.644 382.748,74.489 382.872,74.333C382.793,74.224 382.708,74.119 382.61,74.028L382.61,74.028L382.61,74.028C382.533,73.956 382.453,73.879 382.364,73.82L382.364,73.82L382.364,73.82L382.364,73.82C382.291,73.772 382.213,73.731 382.134,73.693C382.066,73.66 381.994,73.637 381.921,73.618L381.921,73.618C381.921,73.618 381.921,73.618 381.921,73.618C381.819,73.592 381.715,73.576 381.611,73.568L381.611,73.568L381.611,73.568ZM387.272,75.96C387.317,75.952 387.364,75.947 387.411,75.945L387.411,75.945C387.878,75.927 388.346,75.902 388.81,75.845L388.81,75.845C388.995,75.822 389.203,75.808 389.38,75.744L389.38,75.744L389.38,75.744C389.38,75.744 389.38,75.743 389.38,75.743C389.574,75.673 389.767,75.601 389.96,75.527L389.96,75.527C390.056,75.49 390.148,75.442 390.235,75.386L390.235,75.386C390.374,75.295 390.509,75.198 390.639,75.094C390.639,75.094 390.639,75.094 390.639,75.094L390.639,75.094C390.694,75.05 390.744,74.998 390.786,74.941L390.786,74.941L390.786,74.941L390.786,74.941C390.885,74.809 390.978,74.674 391.065,74.534L391.065,74.534C391.109,74.463 391.147,74.387 391.176,74.309L391.176,74.309C391.176,74.309 391.176,74.309 391.176,74.309L391.177,74.307C391.186,74.281 391.193,74.254 391.198,74.228C391.208,74.116 391.211,74.005 391.209,73.893L391.209,73.892C391.207,73.81 391.199,73.727 391.185,73.646L391.185,73.646L391.185,73.646C391.185,73.646 391.185,73.645 391.185,73.645C391.164,73.521 391.139,73.398 391.112,73.275L391.075,73.193C391.052,73.159 391.027,73.127 390.999,73.096L390.999,73.096L390.999,73.096L390.999,73.096C390.999,73.096 390.999,73.096 390.999,73.096C390.949,73.04 390.894,72.989 390.834,72.943L390.82,72.933C390.774,72.897 390.725,72.864 390.675,72.834L390.593,72.808C390.507,72.8 390.422,72.797 390.336,72.798C390.165,72.801 389.995,72.807 389.825,72.818L389.79,72.82C389.67,72.828 389.551,72.848 389.435,72.877L389.435,72.877C389.435,72.877 389.435,72.877 389.435,72.877L389.435,72.877C389.435,72.877 389.434,72.877 389.434,72.877C389.273,72.918 389.113,72.969 388.957,73.028L388.937,73.036C388.726,73.117 388.521,73.216 388.319,73.317L388.319,73.317L388.319,73.317C388.042,73.455 387.772,73.606 387.509,73.766L387.508,73.767L387.508,73.767L387.508,73.767C387.393,73.837 387.278,73.907 387.166,73.98C387.233,74.16 387.27,74.355 387.27,74.558L387.27,74.558C387.27,75.025 387.272,75.492 387.272,75.96ZM390.654,72.821L390.647,72.817L390.639,72.812C390.633,72.812 390.627,72.811 390.622,72.81L390.654,72.821Z"/>
        </g>
    </g>
</svg>
