<?xml version="1.0" encoding="UTF-8" standalone="no"?>
<!DOCTYPE svg PUBLIC "-//W3C//DTD SVG 1.1//EN" "http://www.w3.org/Graphics/SVG/1.1/DTD/svg11.dtd">
<svg width="100%" height="100%" viewBox="0 0 24 24" version="1.1" xmlns="http://www.w3.org/2000/svg" xmlns:xlink="http://www.w3.org/1999/xlink" xml:space="preserve" xmlns:serif="http://www.serif.com/" style="fill-rule:evenodd;clip-rule:evenodd;stroke-linejoin:round;stroke-miterlimit:2;">
    <g transform="matrix(1,0,0,1,-340,-102)">
        <g id="Ebene1">
        </g>
        <g>
            <path d="M347.517,121.097C347.25,121.056 346.983,121.017 346.716,120.979L346.715,120.979L346.714,120.979C346.367,120.931 346.021,120.862 345.684,120.765L345.681,120.764L345.681,120.764C345.328,120.662 344.985,120.526 344.661,120.354L344.66,120.354L344.66,120.354L344.66,120.354L344.66,120.354L344.659,120.353C344.416,120.225 344.18,120.085 343.952,119.933L343.952,119.933L343.952,119.933L343.952,119.933C343.655,119.735 343.38,119.504 343.137,119.242L343.137,119.242C343.137,119.242 343.137,119.242 343.137,119.242L343.137,119.242C343.137,119.242 343.129,119.233 343.129,119.233L343.129,119.233C342.918,119.005 342.728,118.759 342.562,118.496C342.562,118.496 342.562,118.496 342.562,118.496L342.562,118.496L342.562,118.496C342.323,118.116 342.162,117.69 342.085,117.249L342.085,117.249L342.085,117.248L342.085,117.248L342.085,117.248C342.014,116.839 342.012,116.419 342.022,116.005L342.023,115.999C342.033,115.597 342.055,115.193 342.127,114.797C342.127,114.797 342.127,114.797 342.127,114.796L342.128,114.789C342.182,114.495 342.254,114.205 342.345,113.921L342.345,113.92C342.345,113.92 342.345,113.92 342.345,113.92L342.346,113.916C342.443,113.616 342.563,113.325 342.7,113.042L342.702,113.038C342.84,112.755 342.992,112.48 343.155,112.211L343.155,112.211C343.326,111.93 343.51,111.657 343.708,111.394L343.727,111.369C343.924,111.111 344.135,110.865 344.357,110.629L344.357,110.629C344.6,110.372 344.857,110.13 345.127,109.901L345.128,109.9C345.383,109.684 345.647,109.478 345.918,109.283L345.919,109.283C346.224,109.065 346.546,108.872 346.881,108.704L346.881,108.704C347.124,108.583 347.366,108.458 347.606,108.33L347.607,108.329L347.607,108.329L347.607,108.329L347.609,108.328C347.912,108.167 348.225,108.024 348.548,107.909L348.553,107.907C348.784,107.825 349.016,107.746 349.249,107.67L349.249,107.67C349.517,107.583 349.79,107.513 350.067,107.465L350.067,107.465C350.304,107.424 350.544,107.395 350.784,107.384L350.786,107.384C350.952,107.376 351.117,107.361 351.282,107.344L351.309,107.341C351.529,107.32 351.751,107.308 351.972,107.312C352.218,107.168 352.491,107.069 352.77,107.025C352.929,106.999 353.093,106.992 353.26,107.006C353.26,107.006 353.27,107.007 353.27,107.007C353.52,107.028 353.769,107.066 354.016,107.116L354.017,107.116C354.36,107.185 354.698,107.284 355.034,107.384L355.178,107.427C355.529,107.533 355.88,107.638 356.232,107.743C356.536,107.833 356.835,107.942 357.126,108.069L357.155,108.081C357.341,108.163 357.528,108.243 357.716,108.32C357.972,108.404 358.225,108.528 358.469,108.637L358.497,108.649C358.747,108.759 358.992,108.878 359.233,109.006C359.503,109.15 359.763,109.313 360.01,109.496L360.014,109.499C360.271,109.69 360.511,109.904 360.73,110.139C360.733,110.142 360.736,110.145 360.738,110.148C360.958,110.384 361.155,110.641 361.325,110.915C361.327,110.918 361.33,110.922 361.332,110.926L361.332,110.926L361.335,110.93C361.51,111.215 361.657,111.517 361.772,111.831L361.772,111.831C361.901,112.182 361.984,112.55 362.017,112.923L362.018,112.929C362.04,113.184 362.053,113.44 362.055,113.697C362.055,113.697 362.055,113.697 362.055,113.697C362.058,113.944 362.053,114.192 362.041,114.44L362.041,114.44C362.029,114.703 362.006,114.965 361.972,115.226L361.972,115.226C361.934,115.513 361.877,115.798 361.801,116.078L361.801,116.078C361.706,116.427 361.567,116.765 361.39,117.081C361.388,117.085 361.386,117.089 361.384,117.093L361.384,117.093C361.236,117.355 361.07,117.606 360.887,117.845L360.887,117.845C360.66,118.143 360.397,118.412 360.112,118.654L360.112,118.654L360.11,118.655C359.867,118.861 359.613,119.053 359.35,119.232L359.35,119.232L359.349,119.232L359.349,119.232C359.095,119.405 358.834,119.57 358.57,119.728L358.57,119.728L358.57,119.728C358.243,119.924 357.903,120.097 357.553,120.249L357.553,120.249L357.553,120.249L357.553,120.249L357.553,120.249L357.553,120.249C357.553,120.249 357.552,120.249 357.552,120.249C357.212,120.397 356.865,120.527 356.512,120.642L356.509,120.643C356.151,120.76 355.789,120.862 355.424,120.952L355.423,120.952L355.421,120.953C355.042,121.046 354.658,121.126 354.273,121.195L354.272,121.195L354.272,121.195C353.863,121.268 353.452,121.323 353.039,121.362L353.039,121.362L353.037,121.362C352.613,121.401 352.187,121.418 351.761,121.414L351.761,121.414L351.761,121.414L351.761,121.414L351.761,121.414C351.403,121.41 351.044,121.405 350.686,121.398L350.686,121.398L350.686,121.398C350.286,121.391 349.886,121.368 349.488,121.329L349.486,121.329L349.485,121.329C349.152,121.296 348.819,121.262 348.487,121.224L348.487,121.224L348.487,121.224L348.487,121.224L348.487,121.224C348.164,121.188 347.841,121.146 347.52,121.097L347.518,121.097L347.517,121.097ZM353.527,117.025C353.823,116.972 354.118,116.91 354.41,116.838L354.411,116.838C354.679,116.772 354.945,116.698 355.208,116.614L355.209,116.613L355.209,116.613L355.209,116.613L355.209,116.613C355.432,116.542 355.653,116.46 355.868,116.367L355.868,116.367L355.868,116.367C356.097,116.267 356.323,116.162 356.546,116.05L356.546,116.05C356.715,115.965 356.881,115.872 357.039,115.769C357.178,115.678 357.312,115.58 357.439,115.474L357.44,115.473C357.551,115.38 357.659,115.283 357.759,115.178L357.759,115.177C357.801,115.133 357.839,115.085 357.871,115.033L357.871,115.033L357.871,115.033C357.926,114.943 357.976,114.849 358.018,114.751L358.018,114.751C358.068,114.634 358.112,114.515 358.149,114.394L358.149,114.394L358.149,114.394L358.149,114.392C358.173,114.315 358.188,114.236 358.196,114.155L358.196,114.155C358.212,113.993 358.223,113.831 358.227,113.668L358.227,113.666C358.23,113.532 358.226,113.397 358.214,113.263L358.214,113.261L358.214,113.26C358.206,113.176 358.19,113.093 358.167,113.012L358.167,113.012C358.142,112.925 358.109,112.84 358.068,112.759L358.067,112.757L358.067,112.757C358.028,112.681 357.982,112.608 357.929,112.54L357.925,112.535C357.883,112.483 357.836,112.437 357.784,112.395L357.783,112.395L357.783,112.395L357.783,112.394L357.783,112.394L357.782,112.394C357.659,112.295 357.53,112.203 357.398,112.117L357.397,112.117L357.397,112.117L357.397,112.117L357.397,112.117L357.397,112.116C357.28,112.04 357.156,111.974 357.029,111.916L356.993,111.9C356.81,111.817 356.626,111.738 356.441,111.663L356.427,111.658C356.289,111.602 356.146,111.558 356,111.523L356,111.523L355.997,111.522C355.724,111.458 355.453,111.386 355.184,111.308C354.925,111.233 354.648,111.203 354.381,111.168L354.132,111.136C353.883,111.104 353.634,111.072 353.385,111.042L353.384,111.042C353.233,111.023 353.082,111.007 352.93,110.994L352.929,110.994C352.925,110.994 352.921,110.993 352.916,110.993L352.916,110.993L352.915,110.993L352.907,110.992L352.905,110.992L352.903,110.992L352.901,110.991L352.896,110.991L352.893,110.991L352.89,110.99L352.887,110.99L352.885,110.99L352.883,110.99L352.878,110.989L352.875,110.989L352.874,110.989L352.873,110.989C352.84,110.985 352.806,110.98 352.773,110.975C352.434,110.92 352.102,110.781 351.816,110.579C351.638,110.566 351.461,110.55 351.283,110.532L351.282,110.532L351.282,110.532L351.28,110.532C351.164,110.52 351.045,110.509 350.928,110.514L350.928,110.514C350.865,110.517 350.801,110.533 350.74,110.549C350.569,110.594 350.4,110.645 350.232,110.7L350.231,110.7L350.231,110.7C350.088,110.746 349.949,110.806 349.815,110.873L349.814,110.874C349.596,110.983 349.38,111.097 349.165,111.214L349.165,111.214L349.165,111.214L349.165,111.214C349.002,111.304 348.847,111.408 348.702,111.526L348.702,111.526L348.702,111.526C348.472,111.713 348.24,111.897 348.007,112.079L348.006,112.08C348.006,112.08 348.006,112.08 348.006,112.08L348.006,112.08C348.006,112.08 348.006,112.08 348.006,112.08C347.829,112.218 347.66,112.366 347.499,112.522L347.499,112.522L347.499,112.522L347.499,112.522C347.499,112.522 347.499,112.522 347.499,112.522C347.34,112.675 347.19,112.836 347.049,113.006L347.049,113.006L347.049,113.006C346.926,113.155 346.811,113.31 346.708,113.473L346.708,113.474L346.707,113.474C346.597,113.649 346.496,113.829 346.402,114.013L346.402,114.014L346.401,114.015C346.307,114.2 346.219,114.389 346.14,114.581L346.14,114.581L346.139,114.583C346.072,114.746 346.01,114.912 345.956,115.08L345.956,115.081C345.956,115.081 345.956,115.081 345.956,115.081C345.914,115.21 345.882,115.342 345.858,115.475L345.858,115.475C345.826,115.649 345.836,115.837 345.84,116.013C345.841,116.039 345.841,116.065 345.843,116.09C345.885,116.158 345.929,116.226 345.972,116.294L345.974,116.295C346.056,116.365 346.143,116.43 346.234,116.49L346.234,116.49C346.3,116.534 346.371,116.57 346.445,116.601L346.445,116.601L346.445,116.601C346.574,116.655 346.707,116.701 346.841,116.74L346.842,116.74C347.036,116.796 347.232,116.842 347.429,116.883L347.43,116.884C347.643,116.928 347.859,116.963 348.075,116.989L348.075,116.989C348.361,117.022 348.647,117.054 348.934,117.084C349.223,117.114 349.514,117.135 349.804,117.151L349.804,117.151L349.804,117.151C350.125,117.169 350.445,117.18 350.766,117.186L350.766,117.186C351.1,117.192 351.435,117.194 351.769,117.192L351.769,117.192L351.769,117.192C352.06,117.19 352.35,117.175 352.64,117.147L352.64,117.147C352.937,117.118 353.233,117.077 353.527,117.025L353.527,117.025Z"/>
            <clipPath id="_clip1">
                <rect x="349.588" y="112.153" width="3.688" height="3.41"/>
            </clipPath>
            <g clip-path="url(#_clip1)">
                <path d="M349.968,112.911C350.373,112.364 351.038,112.139 351.699,112.164C352.537,112.196 353.216,112.855 353.272,113.692C353.331,114.591 352.653,115.369 351.756,115.433C351.394,115.547 350.995,115.535 350.636,115.384C350.293,115.24 350.01,114.982 349.835,114.654L349.835,114.654C349.64,114.289 349.599,113.869 349.697,113.483C349.743,113.3 349.822,113.123 349.934,112.959L349.934,112.959L349.935,112.959L349.939,112.953L349.942,112.948L349.943,112.947L349.943,112.946C349.946,112.943 349.948,112.939 349.951,112.935L349.957,112.928L349.96,112.923L349.96,112.922L349.961,112.922C349.963,112.918 349.966,112.915 349.968,112.911Z"/>
            </g>
        </g>
    </g>
</svg>
