<?xml version="1.0" encoding="UTF-8" standalone="no"?>
<!DOCTYPE svg PUBLIC "-//W3C//DTD SVG 1.1//EN" "http://www.w3.org/Graphics/SVG/1.1/DTD/svg11.dtd">
<svg width="100%" height="100%" viewBox="0 0 24 24" version="1.1" xmlns="http://www.w3.org/2000/svg" xmlns:xlink="http://www.w3.org/1999/xlink" xml:space="preserve" xmlns:serif="http://www.serif.com/" style="fill-rule:evenodd;clip-rule:evenodd;stroke-linejoin:round;stroke-miterlimit:2;">
    <g transform="matrix(1,0,0,1,0,-170)">
        <g id="Ebene1">
        </g>
        <g>
            <g transform="matrix(1,0,0,1,-20.0489,-8.5792)">
                <path d="M24.855,187.545C24.859,186.336 24.868,185.126 24.877,183.917C24.883,183.021 25.607,182.297 26.502,182.291C27.407,182.285 28.145,183.013 28.151,183.917C28.159,185.116 28.164,186.315 28.19,187.514C28.202,188.115 28.218,188.716 28.237,189.316L28.24,189.436C28.259,190.066 28.281,190.695 28.307,191.324C28.342,192.194 28.365,193.065 28.388,193.935C28.389,193.943 28.389,193.951 28.389,193.958C28.406,194.622 28.423,195.286 28.439,195.949L28.446,196.237C28.454,196.594 28.464,196.95 28.477,197.307C28.477,197.311 28.478,197.315 28.478,197.319C28.493,197.762 28.395,198.21 28.199,198.608C28.026,198.958 27.765,199.305 27.41,199.485C27.31,199.535 27.204,199.568 27.094,199.585C26.609,199.657 26.108,199.436 25.742,199.133C25.259,198.732 24.95,198.135 24.903,197.51C24.903,197.506 24.903,197.502 24.902,197.498C24.875,197.106 24.86,196.713 24.851,196.32C24.833,195.527 24.857,194.733 24.875,193.94L24.879,193.781C24.898,192.986 24.914,192.19 24.913,191.395C24.913,190.776 24.902,190.157 24.883,189.539C24.863,188.874 24.853,188.21 24.855,187.545Z"/>
            </g>
            <g transform="matrix(1,0,0,1,-20.0489,-8.5792)">
                <path d="M30.761,184.017C30.733,183.667 30.725,183.316 30.725,182.965C30.725,182.061 31.458,181.328 32.362,181.328C33.267,181.328 34,182.061 34,182.965C34,183.231 34.005,183.497 34.025,183.762C34.045,184.021 34.066,184.28 34.088,184.538L34.11,184.796C34.145,185.222 34.206,185.646 34.28,186.067C34.367,186.565 34.449,187.064 34.524,187.564L34.539,187.664C34.618,188.193 34.686,188.723 34.739,189.255C34.739,189.261 34.74,189.268 34.741,189.274C34.781,189.687 34.793,190.103 34.804,190.518C34.822,191.182 34.828,191.847 34.832,192.511C34.835,193.143 34.837,193.776 34.825,194.409C34.818,194.784 34.821,195.171 34.753,195.541C34.753,195.546 34.752,195.551 34.751,195.556C34.623,196.236 34.17,196.9 33.505,197.147C33.343,197.207 33.173,197.239 33.001,197.242C32.079,197.258 31.293,196.504 31.09,195.637C31.089,195.633 31.088,195.629 31.087,195.625C30.998,195.234 30.998,194.821 30.987,194.423C30.971,193.787 30.971,193.151 30.973,192.515L30.973,192.417C30.975,191.4 30.97,190.382 31.01,189.366C31.03,188.877 31.042,188.388 31.049,187.898C31.056,187.406 31.049,186.913 31.028,186.421C31.011,186.008 30.976,185.595 30.911,185.187C30.909,185.179 30.908,185.172 30.907,185.164C30.845,184.784 30.79,184.401 30.761,184.017Z"/>
            </g>
            <g transform="matrix(1,0,0,1,-20.0489,-8.5792)">
                <path d="M36.213,183.774C36.216,183.665 36.171,183.542 36.137,183.44C35.846,182.584 36.305,181.654 37.161,181.364C38.017,181.073 38.947,181.532 39.238,182.388C39.333,182.668 39.43,182.948 39.535,183.225C39.674,183.595 39.781,183.976 39.876,184.359C39.995,184.84 40.084,185.33 40.155,185.821C40.227,186.325 40.289,186.83 40.34,187.337L40.345,187.386C40.395,187.898 40.438,188.409 40.471,188.921L40.475,188.971C40.551,190.164 40.539,191.365 40.547,192.558L40.548,192.674C40.556,193.701 40.469,194.738 40.211,195.734C40.007,196.525 39.695,197.349 39.14,197.965C39.129,197.977 39.118,197.988 39.107,197.999C38.709,198.402 38.059,198.406 37.656,198.007C37.054,197.413 36.705,196.578 36.479,195.777C36.195,194.772 36.096,193.719 36.102,192.677C36.109,191.477 36.112,190.277 36.131,189.076L36.132,188.983C36.139,188.516 36.144,188.05 36.147,187.583C36.149,187.09 36.151,186.598 36.152,186.106L36.152,186.02C36.154,185.592 36.161,185.164 36.178,184.736L36.187,184.495C36.196,184.255 36.204,184.015 36.213,183.774Z"/>
            </g>
        </g>
    </g>
</svg>
