<?xml version="1.0" encoding="UTF-8" standalone="no"?>
<!DOCTYPE svg PUBLIC "-//W3C//DTD SVG 1.1//EN" "http://www.w3.org/Graphics/SVG/1.1/DTD/svg11.dtd">
<svg width="100%" height="100%" viewBox="0 0 24 24" version="1.1" xmlns="http://www.w3.org/2000/svg" xmlns:xlink="http://www.w3.org/1999/xlink" xml:space="preserve" xmlns:serif="http://www.serif.com/" style="fill-rule:evenodd;clip-rule:evenodd;stroke-linejoin:round;stroke-miterlimit:2;">
    <g transform="matrix(1,0,0,1,-170,-170)">
        <g id="Ebene1">
        </g>
        <g>
            <clipPath id="_clip1">
                <rect x="173.391" y="172.303" width="18.909" height="20.997"/>
            </clipPath>
            <g clip-path="url(#_clip1)">
                <path d="M180.346,186.314C180.329,186.035 180.328,185.755 180.348,185.476L180.348,185.476C180.416,184.517 180.497,183.558 180.584,182.6L180.584,182.6C180.679,181.54 180.726,180.475 180.731,179.41L180.731,179.41C180.735,178.572 180.739,177.734 180.748,176.897L180.748,176.897L180.748,176.897L180.748,176.897C180.753,176.337 180.758,175.778 180.762,175.218L180.762,175.218C180.762,175.218 180.762,175.218 180.762,175.218L180.762,175.215C180.766,174.63 180.785,174.023 180.958,173.46C181.223,172.595 182.139,172.11 183.004,172.376C183.853,172.637 184.336,173.526 184.101,174.377L184.1,174.38C184.096,174.424 184.095,174.469 184.095,174.514C184.094,174.695 184.109,174.876 184.128,175.055L184.128,175.055L184.128,175.056C184.187,175.63 184.241,176.204 184.284,176.779L184.284,176.781C184.35,177.652 184.355,178.529 184.363,179.402L184.363,179.405C184.372,180.573 184.337,181.741 184.247,182.905L184.247,182.907C184.247,182.907 184.247,182.908 184.247,182.908C184.197,183.55 184.149,184.193 184.104,184.835C184.359,184.554 184.621,184.28 184.892,184.015C184.893,184.014 184.894,184.013 184.895,184.012L184.897,184.01C185.174,183.738 185.458,183.471 185.748,183.213L185.749,183.211C186.107,182.893 186.486,182.597 186.869,182.31C186.873,182.307 186.877,182.304 186.881,182.301C187.721,181.677 188.957,181.407 189.944,181.83C190.288,181.977 190.526,182.299 190.566,182.671C190.679,183.727 190.077,184.822 189.254,185.451L189.253,185.451L189.243,185.459C189.243,185.459 189.24,185.461 189.24,185.461C188.945,185.684 188.653,185.912 188.376,186.157L188.374,186.159L188.374,186.159C188.128,186.378 187.889,186.604 187.653,186.834L187.652,186.835L187.652,186.835L187.651,186.836C187.386,187.095 187.126,187.357 186.869,187.623C186.869,187.623 186.869,187.623 186.869,187.623L186.869,187.623C186.619,187.882 186.374,188.146 186.136,188.416L186.136,188.416L186.136,188.416L186.136,188.417L186.136,188.417L186.135,188.417C185.91,188.672 185.69,188.931 185.476,189.195L185.461,189.213C185.306,189.404 185.161,189.603 185.031,189.812L185.031,189.812C185.031,189.812 185.031,189.812 185.031,189.812L185.031,189.812L185.031,189.813C184.841,190.118 184.677,190.439 184.516,190.76L184.516,190.76L184.515,190.761C184.318,191.152 184.069,191.522 183.74,191.815C183.229,192.27 182.542,192.501 181.86,192.397L181.86,192.397L181.853,192.396L181.848,192.395L181.834,192.393C181.275,192.302 180.753,192.056 180.286,191.742L180.286,191.742C179.926,191.5 179.582,191.233 179.275,190.927C179.275,190.927 179.274,190.926 179.274,190.926C178.996,190.649 178.743,190.346 178.513,190.027C178.292,189.72 178.08,189.405 177.876,189.086L177.861,189.063C177.543,188.567 177.257,188.051 176.973,187.536L176.973,187.536L176.973,187.535C176.752,187.133 176.535,186.721 176.275,186.342L176.275,186.342L176.275,186.342L176.272,186.339C176.089,186.285 175.911,186.215 175.744,186.122C175.294,185.872 174.952,185.449 174.841,184.943L174.841,184.941L174.84,184.939L174.84,184.935L174.839,184.932L174.839,184.931L174.838,184.926L174.837,184.923L174.837,184.922C174.836,184.918 174.835,184.914 174.834,184.91L174.834,184.91L174.834,184.909L174.833,184.9L174.832,184.898L174.832,184.897L174.832,184.896L174.831,184.89L174.83,184.886L174.83,184.885L174.829,184.884L174.829,184.88L174.828,184.873L174.827,184.872L174.827,184.872C174.827,184.868 174.826,184.864 174.825,184.859L174.825,184.859C174.824,184.854 174.823,184.848 174.823,184.843L174.822,184.842L174.822,184.842C174.696,184.02 175.214,183.22 176.012,182.992C176.235,182.928 176.467,182.911 176.697,182.918L176.718,182.918C177.3,182.939 177.858,183.174 178.29,183.562L178.291,183.563L178.291,183.563C178.554,183.799 178.787,184.067 179.003,184.346L179.003,184.346C179.348,184.79 179.655,185.265 179.964,185.734L179.964,185.735C180.091,185.928 180.218,186.121 180.346,186.314Z"/>
            </g>
        </g>
    </g>
</svg>
