<?xml version="1.0" encoding="UTF-8" standalone="no"?>
<!DOCTYPE svg PUBLIC "-//W3C//DTD SVG 1.1//EN" "http://www.w3.org/Graphics/SVG/1.1/DTD/svg11.dtd">
<svg width="100%" height="100%" viewBox="0 0 24 24" version="1.1" xmlns="http://www.w3.org/2000/svg" xmlns:xlink="http://www.w3.org/1999/xlink" xml:space="preserve" xmlns:serif="http://www.serif.com/" style="fill-rule:evenodd;clip-rule:evenodd;stroke-linejoin:round;stroke-miterlimit:2;">
    <g transform="matrix(1,0,0,1,-374,-170)">
        <g id="Ebene1">
        </g>
        <g>
            <clipPath id="_clip1">
                <rect x="375.535" y="172.349" width="21.413" height="20.737"/>
            </clipPath>
            <g clip-path="url(#_clip1)">
                <path d="M379.881,190.723C379.798,190.886 379.708,191.045 379.612,191.198C379.33,191.652 378.764,191.841 378.265,191.647L378.265,191.647C377.043,191.17 375.975,190.126 375.812,188.776L375.812,188.776C375.752,188.273 375.707,187.768 375.673,187.262L375.673,187.259L375.673,187.259L375.673,187.259L375.673,187.259L375.673,187.258C375.609,186.307 375.61,185.35 375.603,184.397C375.593,183.032 375.579,181.666 375.562,180.3L375.562,180.296L375.562,180.292C375.548,179.199 375.528,178.095 375.626,177.004L375.626,177.004C375.686,176.331 375.762,175.66 375.851,174.99L375.851,174.989C375.956,174.199 376.119,173.311 376.747,172.758C377.141,172.411 377.676,172.274 378.187,172.388C379.07,172.586 379.625,173.462 379.427,174.344L379.427,174.344C379.407,174.433 379.417,174.524 379.422,174.615C379.431,174.755 379.444,174.895 379.458,175.035L379.459,175.037L379.459,175.037L379.459,175.04C379.528,175.693 379.592,176.348 379.651,177.002L379.651,177.01C379.732,177.915 379.797,178.821 379.862,179.726L379.889,180.115C379.951,180.983 380.01,181.851 380.067,182.718C380.112,182.704 380.157,182.692 380.204,182.682C380.681,182.575 381.162,182.477 381.649,182.43L381.649,182.43C381.941,182.401 382.23,182.343 382.515,182.277L382.515,182.277C382.954,182.176 383.393,182.076 383.832,181.978L383.834,181.977C384.615,181.802 385.416,181.705 386.211,181.61L386.211,181.61C387.188,181.493 388.17,181.404 389.154,181.36L389.154,181.36C389.613,181.339 390.074,181.315 390.534,181.307C390.591,180.217 390.665,179.127 390.759,178.04L390.759,178.04C390.759,178.04 390.759,178.039 390.759,178.039C390.821,177.323 390.884,176.608 390.941,175.892L390.941,175.889C390.983,175.36 391.035,174.832 391.089,174.304C391.146,173.749 391.481,173.26 391.98,173.008C392.787,172.601 393.772,172.925 394.18,173.732L394.18,173.732C394.499,174.366 394.776,175.038 394.887,175.743L394.887,175.744C395.005,176.501 395.067,177.268 395.135,178.03L395.135,178.033L395.135,178.033L395.136,178.037C395.239,179.186 395.289,180.339 395.296,181.492L395.296,181.494C395.301,182.3 395.306,183.105 395.311,183.911L395.311,183.911L395.311,183.911C395.315,184.545 395.322,185.18 395.328,185.815L395.328,185.822C395.333,186.295 395.327,186.773 395.367,187.245C395.367,187.245 395.367,187.245 395.367,187.245C395.384,187.439 395.406,187.633 395.438,187.825L395.443,187.854C395.554,188.564 395.379,189.29 395.028,189.916C394.968,190.133 394.839,190.333 394.65,190.482L394.65,190.482L394.625,190.501C394.585,190.549 394.544,190.597 394.502,190.643C394.366,190.791 394.193,190.896 394.003,190.949C393.385,191.352 392.699,191.662 391.958,191.686L391.955,191.686L391.941,191.687L391.939,191.687C391.939,191.687 391.939,191.687 391.939,191.687C391.41,191.701 390.88,191.697 390.351,191.695L390.35,191.695L390.349,191.695C389.526,191.692 388.703,191.693 387.88,191.696L387.88,191.696L387.879,191.696C387.131,191.699 386.382,191.7 385.635,191.676L385.631,191.675C385.631,191.675 385.631,191.675 385.631,191.675L385.631,191.675C385.631,191.675 385.628,191.675 385.628,191.675C384.885,191.651 384.144,191.579 383.405,191.5L383.405,191.5L383.405,191.5L383.405,191.5L383.405,191.5C382.673,191.421 381.938,191.334 381.217,191.183L381.217,191.183C380.759,191.086 380.292,190.954 379.881,190.723ZM390.362,185.903C389.973,185.893 389.584,185.882 389.196,185.871L389.194,185.871L389.191,185.871C388.248,185.845 387.305,185.808 386.362,185.764C386.362,185.764 386.362,185.764 386.362,185.764C385.597,185.729 384.83,185.694 384.066,185.623L384.064,185.622L384.064,185.622C383.662,185.585 383.259,185.559 382.855,185.55L382.833,185.55C382.608,185.546 382.376,185.551 382.155,185.601L380.919,185.877C380.697,185.927 380.476,185.929 380.265,185.89C380.287,186.242 380.31,186.594 380.334,186.945L380.334,186.948C380.348,187.161 380.363,187.375 380.378,187.589C380.518,187.573 380.663,187.575 380.809,187.598L380.809,187.598L380.835,187.602L380.846,187.604C380.848,187.605 380.832,187.604 380.822,187.603C380.818,187.602 380.815,187.601 380.815,187.601L380.816,187.601C380.816,187.601 380.816,187.601 380.817,187.601L380.816,187.601L380.816,187.601L380.815,187.601C380.815,187.601 380.818,187.602 380.822,187.603C380.832,187.604 380.848,187.606 380.846,187.604C380.846,187.604 380.846,187.604 380.846,187.604L380.841,187.603L380.835,187.602L380.826,187.6C380.854,187.6 380.882,187.599 380.909,187.596C381.036,187.587 381.162,187.568 381.286,187.546L381.286,187.546L381.286,187.546C381.989,187.426 382.698,187.346 383.406,187.27L383.406,187.27C384.125,187.193 384.846,187.12 385.568,187.077L385.57,187.077C386.282,187.034 386.994,186.985 387.705,186.935L387.705,186.935C388.582,186.874 389.461,186.83 390.34,186.823L390.34,186.823L390.363,186.823C390.354,186.516 390.358,186.207 390.362,185.903ZM380.826,187.6L380.824,187.6L380.826,187.6Z"/>
            </g>
        </g>
    </g>
</svg>
