<?xml version="1.0" encoding="UTF-8" standalone="no"?>
<!DOCTYPE svg PUBLIC "-//W3C//DTD SVG 1.1//EN" "http://www.w3.org/Graphics/SVG/1.1/DTD/svg11.dtd">
<svg width="100%" height="100%" viewBox="0 0 24 24" version="1.1" xmlns="http://www.w3.org/2000/svg" xmlns:xlink="http://www.w3.org/1999/xlink" xml:space="preserve" xmlns:serif="http://www.serif.com/" style="fill-rule:evenodd;clip-rule:evenodd;stroke-linejoin:round;stroke-miterlimit:2;">
    <g transform="matrix(1,0,0,1,0,-238)">
        <g id="Ebene1">
        </g>
        <g transform="matrix(1,0,0,1,-193.771,192.373)">
            <clipPath id="_clip1">
                <rect x="198.652" y="53.43" width="14.406" height="9.785"/>
            </clipPath>
            <g clip-path="url(#_clip1)">
                <path d="M209.075,55.276C209.283,54.731 209.647,54.254 210.016,53.809C210.332,53.426 210.871,53.316 211.309,53.551C211.637,53.727 211.949,53.938 212.215,54.195C212.773,54.742 213.104,55.511 212.991,56.298L212.988,56.316C212.926,56.719 212.813,57.109 212.656,57.484C212.512,57.832 212.34,58.172 212.148,58.496C212.135,58.521 212.121,58.545 212.106,58.568C211.879,58.947 211.609,59.302 211.315,59.629L211.314,59.63L211.305,59.641C211.297,59.649 211.29,59.657 211.282,59.665C211.008,59.961 210.722,60.246 210.422,60.521C210.418,60.524 210.414,60.528 210.41,60.531L210.388,60.551L210.387,60.552L210.386,60.553C210.067,60.84 209.728,61.113 209.379,61.369L209.344,61.395C208.954,61.678 208.546,61.936 208.123,62.173L208.082,62.195C207.625,62.449 207.148,62.668 206.656,62.84C206.651,62.842 206.647,62.843 206.642,62.845C206.123,63.023 205.583,63.137 205.038,63.174L205.012,63.176C204.533,63.207 204.055,63.196 203.58,63.139C203.574,63.138 203.568,63.137 203.563,63.137C203.072,63.079 202.589,62.96 202.133,62.772C202.128,62.77 202.122,62.768 202.117,62.766L202.106,62.761L202.105,62.76C201.66,62.574 201.243,62.325 200.875,62.016L200.86,62.003C200.55,61.741 200.266,61.444 200.016,61.121C200.012,61.116 200.008,61.111 200.004,61.106C199.794,60.829 199.599,60.541 199.434,60.234L199.42,60.21C199.285,59.956 199.161,59.694 199.055,59.426L199.045,59.402C198.948,59.16 198.861,58.914 198.793,58.66C198.704,58.348 198.654,58.021 198.66,57.694C198.66,57.689 198.66,57.684 198.66,57.68C198.664,57.516 198.668,57.355 198.672,57.195C198.68,56.699 198.844,56.215 199.121,55.805C199.582,55.121 200.48,54.887 201.215,55.262C201.998,55.655 202.327,56.592 201.977,57.385C201.994,57.432 202.012,57.478 202.031,57.523C202.034,57.53 202.037,57.536 202.039,57.542C202.082,57.637 202.136,57.729 202.191,57.82C202.27,57.938 202.352,58.051 202.445,58.16C202.45,58.165 202.454,58.171 202.459,58.176C202.55,58.279 202.654,58.371 202.762,58.457C202.779,58.472 202.796,58.487 202.813,58.502C202.931,58.596 203.058,58.683 203.188,58.762C203.282,58.815 203.384,58.857 203.49,58.891L203.5,58.895C203.621,58.93 203.75,58.941 203.875,58.945C203.889,58.945 203.903,58.945 203.917,58.946C204.144,58.948 204.371,58.936 204.595,58.908C204.6,58.907 204.605,58.907 204.609,58.906C204.786,58.884 204.955,58.84 205.121,58.774C205.127,58.771 205.134,58.768 205.141,58.766C205.414,58.66 205.676,58.527 205.93,58.383C205.941,58.375 205.949,58.371 205.961,58.363C205.976,58.355 205.99,58.347 206.005,58.339C206.267,58.187 206.52,58.022 206.766,57.844C207.016,57.66 207.266,57.465 207.5,57.262L207.519,57.245C207.711,57.074 207.896,56.892 208.07,56.703C208.27,56.484 208.465,56.262 208.656,56.035C208.734,55.937 208.813,55.836 208.871,55.727C208.945,55.582 209.012,55.437 209.07,55.289L209.075,55.276Z"/>
            </g>
        </g>
    </g>
</svg>
