<?xml version="1.0" encoding="UTF-8" standalone="no"?>
<!DOCTYPE svg PUBLIC "-//W3C//DTD SVG 1.1//EN" "http://www.w3.org/Graphics/SVG/1.1/DTD/svg11.dtd">
<svg width="100%" height="100%" viewBox="0 0 24 24" version="1.1" xmlns="http://www.w3.org/2000/svg" xmlns:xlink="http://www.w3.org/1999/xlink" xml:space="preserve" xmlns:serif="http://www.serif.com/" style="fill-rule:evenodd;clip-rule:evenodd;stroke-linejoin:round;stroke-miterlimit:2;">
    <g transform="matrix(1,0,0,1,-102,-238)">
        <g id="Ebene1">
        </g>
        <g>
            <path d="M112.014,253.068L112.014,253.067L112.014,253.067C112.344,252.781 112.75,252.58 113.185,252.521C113.632,252.459 114.09,252.553 114.471,252.782C114.555,252.787 114.638,252.797 114.722,252.813L114.722,252.813C115.312,252.919 115.842,253.262 116.185,253.751C116.426,254.096 116.567,254.503 116.596,254.919C116.612,255.138 116.597,255.363 116.546,255.588L116.546,255.588C116.446,256.035 116.255,256.46 115.977,256.824L115.976,256.825L115.968,256.836L115.967,256.837C115.964,256.842 115.96,256.846 115.957,256.851C115.778,257.079 115.573,257.287 115.349,257.471L115.349,257.471L115.348,257.472C115.11,257.667 114.848,257.833 114.579,257.981L114.579,257.981C114.579,257.981 114.579,257.981 114.579,257.981L114.579,257.981C114.579,257.981 114.575,257.983 114.575,257.983C113.964,258.318 113.253,258.456 112.564,258.339L112.553,258.337L112.541,258.335L112.538,258.334L112.536,258.334L112.531,258.333L112.529,258.332L112.528,258.332C111.804,258.198 111.155,257.758 110.794,257.112C110.437,256.473 110.399,255.697 110.675,255.022L110.675,255.022L110.68,255.011L110.681,255.009L110.681,255.008C110.728,254.895 110.775,254.781 110.823,254.668L110.824,254.667C110.949,254.369 111.125,254.096 111.314,253.836L111.315,253.835C111.52,253.555 111.752,253.295 112.014,253.068L112.014,253.068Z"/>
            <clipPath id="_clip1">
                <rect x="104.53" y="245.513" width="5.467" height="6.434"/>
            </clipPath>
            <g clip-path="url(#_clip1)">
                <path d="M104.695,248.213C104.543,247.658 104.517,247.054 104.744,246.515C104.887,246.177 105.139,245.897 105.459,245.719C106.25,245.28 107.247,245.566 107.685,246.357C107.745,246.466 107.825,246.567 107.898,246.666L107.898,246.667L107.898,246.667C108.019,246.831 108.151,246.985 108.291,247.133L108.291,247.133C108.471,247.325 108.651,247.517 108.826,247.714L108.827,247.714L108.827,247.714C108.96,247.863 109.094,248.012 109.229,248.161L109.229,248.161L109.247,248.181C109.867,248.882 110.028,249.893 109.842,250.789C109.767,251.147 109.52,251.444 109.182,251.583L109.182,251.583C108.148,252.007 106.861,251.867 106.084,251.008L106.084,251.008L106.083,251.008C105.879,250.782 105.688,250.543 105.517,250.29C105.273,249.927 105.099,249.521 104.964,249.107L104.964,249.106C104.964,249.106 104.964,249.106 104.964,249.106L104.964,249.106C104.868,248.812 104.778,248.515 104.696,248.216L104.696,248.216L104.695,248.213Z"/>
            </g>
            <clipPath id="_clip2">
                <rect x="111.367" y="240.12" width="4.894" height="10.753"/>
            </clipPath>
            <g clip-path="url(#_clip2)">
                <path d="M111.794,243.261L111.794,243.261C111.884,242.561 112.079,241.876 112.313,241.212C112.455,240.812 112.746,240.482 113.126,240.293C113.935,239.889 114.918,240.217 115.322,241.026L115.322,241.026C115.671,241.725 115.95,242.471 116.054,243.248L116.054,243.251C116.116,243.712 116.166,244.175 116.192,244.64C116.217,245.108 116.224,245.577 116.223,246.046L116.223,246.046C116.222,246.495 116.228,246.943 116.241,247.392L116.241,247.392C116.254,247.845 116.268,248.309 116.187,248.756C116.186,248.762 116.185,248.767 116.184,248.772L116.184,248.772C116.182,248.785 116.179,248.797 116.177,248.81L116.177,248.81L116.177,248.811C116.02,249.58 115.494,250.25 114.764,250.561C114.556,250.649 114.337,250.707 114.112,250.733L114.112,250.733C113.356,250.819 112.621,250.525 112.115,249.997C111.908,249.783 111.738,249.528 111.62,249.237L111.62,249.236L111.619,249.236L111.617,249.23L111.615,249.226L111.615,249.225L111.614,249.222L111.611,249.216L111.611,249.214L111.61,249.213L111.607,249.206L111.606,249.201L111.605,249.2L111.6,249.187L111.599,249.183L111.598,249.182L111.598,249.181C111.375,248.593 111.373,247.951 111.407,247.331L111.407,247.331L111.407,247.331C111.436,246.815 111.48,246.3 111.537,245.787L111.537,245.787L111.537,245.787L111.537,245.787C111.581,245.388 111.622,244.988 111.653,244.588L111.653,244.588L111.653,244.588L111.653,244.588C111.688,244.144 111.738,243.702 111.794,243.261Z"/>
            </g>
            <clipPath id="_clip3">
                <rect x="116.668" y="246.207" width="6.904" height="7.361"/>
            </clipPath>
            <g clip-path="url(#_clip3)">
                <path d="M119.887,247.144L119.887,247.144C120.34,246.64 120.979,246.357 121.635,246.235C121.751,246.214 121.868,246.204 121.985,246.208C122.889,246.236 123.599,246.991 123.571,247.895L123.571,247.895C123.554,248.456 123.444,249.025 123.162,249.516C123.162,249.516 123.161,249.517 123.161,249.517C123.025,249.755 122.871,249.983 122.709,250.203L122.707,250.206L122.705,250.209C122.495,250.493 122.269,250.766 122.041,251.036L122.041,251.036C121.711,251.43 121.37,251.816 121.027,252.198L121.026,252.2L121.026,252.2C120.727,252.532 120.367,252.812 119.961,253C119.334,253.289 118.579,253.349 117.96,253.001C117.803,252.913 117.661,252.801 117.537,252.67L117.537,252.67C117.006,252.105 116.91,251.273 117.121,250.551C117.259,250.078 117.522,249.646 117.861,249.289C117.864,249.285 117.867,249.282 117.871,249.278C117.871,249.278 117.871,249.278 117.871,249.278L117.871,249.278C118.212,248.921 118.553,248.565 118.895,248.209L118.895,248.209L118.895,248.209L118.895,248.209C119.099,247.996 119.303,247.783 119.503,247.566L119.503,247.566C119.631,247.426 119.759,247.285 119.887,247.144Z"/>
            </g>
        </g>
    </g>
</svg>
