<?xml version="1.0" encoding="UTF-8" standalone="no"?>
<!DOCTYPE svg PUBLIC "-//W3C//DTD SVG 1.1//EN" "http://www.w3.org/Graphics/SVG/1.1/DTD/svg11.dtd">
<svg width="100%" height="100%" viewBox="0 0 24 24" version="1.1" xmlns="http://www.w3.org/2000/svg" xmlns:xlink="http://www.w3.org/1999/xlink" xml:space="preserve" xmlns:serif="http://www.serif.com/" style="fill-rule:evenodd;clip-rule:evenodd;stroke-linejoin:round;stroke-miterlimit:2;">
    <g transform="matrix(1,0,0,1,-204,-238)">
        <g id="Ebene1">
        </g>
        <g>
            <clipPath id="_clip1">
                <rect x="205.351" y="244.539" width="13.637" height="16.115"/>
            </clipPath>
            <g clip-path="url(#_clip1)">
                <path d="M215.843,247.107C215.902,246.602 216.022,246.097 216.251,245.642C216.486,245.172 216.868,244.712 217.396,244.572C217.774,244.473 218.177,244.6 218.43,244.899L218.43,244.899C218.7,245.22 218.815,245.653 218.876,246.06C218.942,246.494 218.945,246.937 218.922,247.374L218.918,247.447C218.877,248.202 218.829,248.957 218.772,249.71L218.772,249.711C218.73,250.279 218.688,250.848 218.629,251.415C218.59,251.792 218.544,252.167 218.49,252.542C218.441,252.885 218.386,253.226 218.323,253.567L218.317,253.6C218.229,254.078 218.103,254.55 217.973,255.019L217.972,255.021L217.972,255.021L217.972,255.021L217.972,255.021L217.971,255.025C217.856,255.44 217.742,255.858 217.598,256.264L217.596,256.268L217.596,256.268L217.596,256.27C217.44,256.708 217.222,257.126 217.008,257.539L217.008,257.539L217.008,257.54C216.805,257.933 216.602,258.335 216.349,258.7C216.347,258.703 216.345,258.705 216.343,258.708L216.343,258.708L216.343,258.708L216.342,258.71C216.031,259.156 215.585,259.51 215.035,259.591L215.033,259.591L215.025,259.592L215.024,259.592L215.024,259.592C214.48,259.668 213.926,259.477 213.545,259.081C213.543,259.079 213.54,259.076 213.538,259.074L213.536,259.071L213.531,259.067L213.53,259.066L213.53,259.065L213.53,259.065C213.257,258.774 213.104,258.4 213.025,258.014L213.01,258.038L212.99,258.071L212.988,258.074L212.988,258.074L212.988,258.074L212.988,258.074L212.987,258.076C212.706,258.538 212.382,258.983 211.979,259.346L211.979,259.346L211.976,259.349C211.595,259.693 211.167,260.001 210.641,260.051L210.637,260.052L210.636,260.052L210.633,260.052L210.63,260.052L210.627,260.053L210.624,260.053L210.62,260.053L210.619,260.053L210.618,260.053L210.61,260.054L210.608,260.054L210.596,260.055C210.096,260.088 209.615,259.892 209.243,259.565L209.243,259.565L209.236,259.559C209.236,259.559 209.236,259.559 209.236,259.559L209.236,259.559C209.043,259.387 208.873,259.189 208.743,258.966L208.743,258.966L208.738,258.958C208.738,258.958 208.738,258.958 208.738,258.958L208.738,258.958C208.738,258.958 208.738,258.958 208.738,258.958C208.712,258.913 208.688,258.867 208.665,258.821C208.645,258.939 208.629,259.058 208.617,259.177L208.617,259.177C208.617,259.177 208.617,259.177 208.617,259.177C208.529,260.077 207.727,260.735 206.827,260.646C205.927,260.557 205.27,259.755 205.359,258.855L205.359,258.855C205.417,258.27 205.645,257.711 205.989,257.236L205.989,257.236C205.989,257.236 205.989,257.236 205.989,257.236L205.989,257.236C206.127,257.044 206.22,256.817 206.298,256.596L206.298,256.595C206.435,256.203 206.564,255.807 206.683,255.408L206.684,255.405C206.768,255.125 206.854,254.845 206.923,254.561L206.923,254.561C206.985,254.303 207.062,254.048 207.148,253.796L207.148,253.796C207.316,253.305 207.579,252.842 208.022,252.549L208.022,252.549L208.025,252.547L208.03,252.544L208.031,252.544C208.034,252.542 208.037,252.539 208.04,252.537L208.048,252.533L208.052,252.53L208.053,252.529L208.054,252.529C208.058,252.526 208.062,252.524 208.065,252.522L208.066,252.521L208.067,252.52C208.071,252.518 208.075,252.516 208.079,252.513L208.079,252.513L208.081,252.512L208.085,252.51L208.092,252.506L208.093,252.505L208.094,252.504L208.1,252.501L208.104,252.499L208.106,252.497L208.107,252.496C208.11,252.495 208.113,252.493 208.116,252.491L208.119,252.49L208.122,252.488L208.123,252.488L208.126,252.486C208.382,252.342 208.674,252.267 208.969,252.269C209.045,252.27 209.121,252.275 209.196,252.286L209.196,252.287C209.271,252.298 209.345,252.314 209.418,252.335L209.418,252.335C210.14,252.543 210.604,253.204 210.645,253.935C210.656,254.137 210.64,254.34 210.615,254.541C210.589,254.751 210.588,254.965 210.6,255.177C210.635,255.081 210.669,254.984 210.702,254.887L210.702,254.887C210.702,254.887 210.702,254.887 210.702,254.887L210.703,254.886C210.79,254.629 210.872,254.37 210.949,254.11L210.949,254.11L210.949,254.11C211.027,253.847 211.098,253.581 211.162,253.313L211.162,253.313L211.162,253.313C211.162,253.313 211.162,253.312 211.162,253.312C211.222,253.062 211.269,252.809 211.304,252.554C211.351,252.206 211.414,251.861 211.492,251.519L211.492,251.519L211.492,251.519C211.554,251.251 211.613,250.984 211.669,250.716L211.669,250.716L211.669,250.715L211.669,250.715C211.735,250.401 211.807,250.087 211.881,249.774L211.881,249.774C211.965,249.417 212.062,249.043 212.263,248.73L212.264,248.728C212.501,248.357 212.861,248.082 213.314,248.053L213.317,248.053L213.319,248.052L213.321,248.052L213.322,248.052L213.324,248.052L213.332,248.052L213.332,248.052L213.333,248.052L213.339,248.051L213.341,248.051L213.344,248.051L213.345,248.051C213.348,248.051 213.35,248.051 213.353,248.051L213.355,248.051L213.359,248.051L213.36,248.051L213.361,248.051C213.854,248.038 214.294,248.336 214.514,248.769C214.604,248.946 214.659,249.14 214.692,249.336L214.694,249.343C214.741,249.626 214.757,249.917 214.778,250.202C214.82,250.753 214.855,251.304 214.889,251.855C214.889,251.855 214.889,251.855 214.889,251.855C214.928,252.488 214.965,253.121 215.01,253.754C215.075,253.501 215.137,253.247 215.189,252.991L215.189,252.991C215.25,252.692 215.301,252.391 215.344,252.089C215.344,252.089 215.344,252.089 215.344,252.089L215.345,252.087C215.393,251.75 215.437,251.411 215.475,251.073L215.475,251.073C215.536,250.542 215.575,250.008 215.614,249.475L215.614,249.474C215.673,248.685 215.75,247.898 215.842,247.112L215.843,247.107Z"/>
            </g>
            <clipPath id="_clip2">
                <rect x="220.527" y="239.721" width="3.98" height="20.281"/>
            </clipPath>
            <g clip-path="url(#_clip2)">
                <path d="M220.987,241.574C221.034,241.258 221.13,240.95 221.267,240.66C221.652,239.842 222.627,239.491 223.445,239.877C224.262,240.261 224.613,241.234 224.231,242.051C224.23,242.11 224.231,242.169 224.232,242.228C224.235,242.495 224.247,242.762 224.26,243.029C224.335,244.565 224.368,246.104 224.41,247.641C224.458,249.377 224.512,251.121 224.445,252.857L224.445,252.857L224.445,252.857L224.445,252.857C224.411,253.735 224.379,254.613 224.353,255.492L224.353,255.493L224.353,255.493L224.353,255.493L224.353,255.493L224.353,255.495C224.331,256.233 224.271,256.972 224.152,257.701C224.151,257.704 224.151,257.708 224.15,257.711C224.004,258.589 223.509,259.649 222.535,259.819C222.32,259.857 222.1,259.839 221.894,259.767C220.999,259.456 220.655,258.393 220.595,257.537C220.544,256.82 220.538,256.1 220.559,255.381L220.559,255.381L220.559,255.381L220.559,255.381C220.584,254.515 220.59,253.648 220.591,252.781L220.591,252.78C220.593,251.067 220.643,249.354 220.69,247.641L220.69,247.641C220.732,246.092 220.756,244.538 220.865,242.992L220.865,242.992C220.898,242.521 220.918,242.043 220.987,241.575L220.987,241.574L220.987,241.574Z"/>
            </g>
        </g>
    </g>
</svg>
