<?xml version="1.0" encoding="UTF-8" standalone="no"?>
<!DOCTYPE svg PUBLIC "-//W3C//DTD SVG 1.1//EN" "http://www.w3.org/Graphics/SVG/1.1/DTD/svg11.dtd">
<svg width="100%" height="100%" viewBox="0 0 24 24" version="1.1" xmlns="http://www.w3.org/2000/svg" xmlns:xlink="http://www.w3.org/1999/xlink" xml:space="preserve" xmlns:serif="http://www.serif.com/" style="fill-rule:evenodd;clip-rule:evenodd;stroke-linejoin:round;stroke-miterlimit:2;">
    <g transform="matrix(1,0,0,1,0,-306)">
        <g id="Ebene1">
        </g>
        <g>
            <path d="M11.444,312.387C12.233,312.222 13.062,312.227 13.844,312.374L13.844,312.374C14.494,312.497 15.149,312.616 15.788,312.79L15.789,312.791C16.25,312.917 16.699,313.086 17.129,313.295L17.134,313.298C17.583,313.517 18.008,313.786 18.399,314.097L18.399,314.097C18.793,314.41 19.152,314.767 19.467,315.16L19.468,315.161C19.805,315.583 20.083,316.051 20.3,316.546L20.301,316.547C20.541,317.096 20.689,317.682 20.739,318.279L20.741,318.307C20.776,318.759 20.781,319.214 20.75,319.667L20.75,319.667L20.75,319.667C20.718,320.126 20.648,320.582 20.539,321.029L20.539,321.031C20.411,321.555 20.213,322.061 19.955,322.536L19.954,322.538C19.72,322.969 19.447,323.379 19.139,323.76L19.136,323.764L19.136,323.764L19.135,323.764C18.828,324.144 18.489,324.496 18.128,324.825L18.122,324.831L18.121,324.831L18.118,324.834C17.736,325.182 17.328,325.502 16.905,325.799L16.901,325.802L16.901,325.802L16.901,325.802L16.901,325.802C16.901,325.802 16.901,325.802 16.901,325.802L16.901,325.802C16.445,326.123 15.966,326.41 15.467,326.659L15.466,326.659C15.466,326.659 15.466,326.659 15.466,326.659L15.466,326.659C15.466,326.659 15.458,326.663 15.458,326.663C14.985,326.899 14.5,327.109 14.006,327.299L14.006,327.299L14.006,327.299L14.006,327.299C13.477,327.503 12.936,327.676 12.386,327.814L12.383,327.815L12.383,327.815L12.382,327.815L12.382,327.815L12.373,327.818C11.771,327.968 11.153,328.057 10.532,328.078L10.526,328.078C10.526,328.078 10.526,328.078 10.526,328.078L10.526,328.078C10.526,328.078 10.516,328.078 10.516,328.078C9.98,328.095 9.442,328.081 8.908,328.029L8.903,328.029L8.903,328.029C8.351,327.975 7.802,327.873 7.27,327.714C6.642,327.527 6.049,327.227 5.533,326.823L5.527,326.818C5.527,326.818 5.527,326.818 5.527,326.818L5.527,326.818C5.062,326.453 4.655,326.017 4.318,325.532L4.318,325.532L4.318,325.532L4.317,325.532L4.316,325.529C3.98,325.044 3.717,324.509 3.53,323.949C3.53,323.949 3.529,323.948 3.529,323.948C3.34,323.38 3.234,322.785 3.216,322.185C3.216,322.185 3.216,322.185 3.216,322.185C3.203,321.733 3.21,321.28 3.241,320.829L3.241,320.828C3.274,320.356 3.341,319.886 3.447,319.424L3.447,319.424C3.551,318.965 3.694,318.515 3.875,318.08L3.875,318.079C4.046,317.668 4.244,317.27 4.47,316.886L4.491,316.851C4.707,316.487 4.944,316.136 5.2,315.799L5.2,315.799C5.486,315.421 5.805,315.067 6.159,314.751L6.159,314.751C6.5,314.447 6.86,314.164 7.225,313.89L7.23,313.887C7.68,313.549 8.156,313.248 8.657,312.991L8.658,312.99L8.658,312.99C9.088,312.769 9.536,312.563 10.008,312.45C10.012,312.449 10.017,312.447 10.022,312.446C10.487,312.337 10.971,312.335 11.444,312.387ZM11.487,315.805L11.405,315.81C11.304,315.816 11.153,315.823 11.071,315.855L11.059,315.86C10.817,315.955 10.586,316.083 10.358,316.207L10.355,316.208L10.355,316.208L10.355,316.208L10.355,316.208L10.355,316.209C10.037,316.381 9.736,316.582 9.451,316.803L9.401,316.842C9.154,317.035 8.911,317.235 8.687,317.455L8.687,317.455L8.686,317.455C8.502,317.636 8.334,317.834 8.179,318.041L8.179,318.041L8.179,318.041C8.039,318.229 7.914,318.429 7.811,318.64L7.801,318.66C7.688,318.897 7.593,319.142 7.515,319.392C7.515,319.392 7.515,319.392 7.515,319.392C7.444,319.624 7.394,319.863 7.365,320.104C7.365,320.104 7.365,320.104 7.365,320.104C7.33,320.401 7.31,320.7 7.306,321C7.302,321.271 7.32,321.543 7.356,321.812L7.359,321.838C7.383,322.008 7.432,322.174 7.504,322.33L7.511,322.345C7.606,322.543 7.72,322.733 7.857,322.906L7.857,322.906C7.944,323.015 8.046,323.112 8.162,323.19L8.162,323.19C8.265,323.26 8.382,323.307 8.502,323.338L8.503,323.339C8.724,323.397 8.952,323.422 9.18,323.427L9.18,323.427L9.18,323.427C9.533,323.436 9.887,323.422 10.24,323.39L10.24,323.39C10.56,323.362 10.877,323.304 11.188,323.221L11.188,323.22L11.188,323.22L11.188,323.22C11.547,323.124 11.899,323.004 12.243,322.863L12.243,322.863C12.591,322.72 12.934,322.563 13.267,322.386L13.267,322.386C13.566,322.228 13.854,322.05 14.131,321.856L14.131,321.856L14.131,321.856C14.131,321.856 14.131,321.856 14.131,321.856C14.39,321.674 14.641,321.479 14.875,321.266L14.876,321.265L14.876,321.265C15.067,321.092 15.25,320.908 15.415,320.709L15.415,320.709L15.415,320.709C15.543,320.555 15.657,320.39 15.756,320.215L15.756,320.215C15.848,320.052 15.927,319.881 15.987,319.704L15.987,319.704C16.038,319.556 16.072,319.403 16.089,319.247C16.116,319.01 16.124,318.771 16.119,318.533L16.119,318.533C16.119,318.533 16.119,318.533 16.119,318.533L16.119,318.532C16.117,318.43 16.098,318.33 16.064,318.234L16.063,318.233C16.012,318.092 15.947,317.955 15.862,317.831L15.862,317.831C15.862,317.831 15.862,317.831 15.862,317.831L15.861,317.83C15.758,317.679 15.637,317.54 15.505,317.413L15.504,317.412L15.503,317.411C15.36,317.274 15.203,317.151 15.035,317.045L15.018,317.034C14.837,316.922 14.647,316.825 14.45,316.744L14.448,316.744L14.448,316.744C14.305,316.686 14.153,316.646 14.004,316.606C13.712,316.526 13.418,316.457 13.124,316.391C12.635,316.454 12.123,316.297 11.749,315.92L11.749,315.92L11.727,315.898C11.667,315.867 11.608,315.834 11.549,315.801L11.487,315.805Z"/>
            <clipPath id="_clip1">
                <rect x="2.186" y="308.195" width="4.113" height="4.723"/>
            </clipPath>
            <g clip-path="url(#_clip1)">
                <path d="M2.495,309.315L2.496,309.313L2.496,309.313C2.757,308.728 3.307,308.359 3.92,308.23C4.678,308.071 5.444,308.463 5.756,309.172C5.895,309.487 5.926,309.823 5.866,310.138C6.1,310.495 6.218,310.919 6.286,311.341C6.354,311.766 6.161,312.191 5.795,312.419L5.795,312.419C5.596,312.544 5.385,312.651 5.163,312.728C4.615,312.916 4.004,312.894 3.497,312.602L3.496,312.601L3.496,312.601L3.493,312.599L3.488,312.596L3.487,312.595L3.485,312.594L3.48,312.592L3.478,312.59L3.477,312.59L3.473,312.587L3.468,312.584L3.465,312.583L3.457,312.578L3.457,312.578L3.456,312.577L3.452,312.575L3.448,312.572L3.446,312.571L3.443,312.569L3.441,312.568L3.438,312.566L3.434,312.564L3.431,312.561L3.43,312.561L3.429,312.56L3.42,312.555L3.419,312.554L3.419,312.554C3.415,312.551 3.411,312.548 3.407,312.546C3.063,312.32 2.794,312.001 2.583,311.651C2.254,311.104 2.133,310.438 2.314,309.82L2.315,309.819L2.317,309.809L2.318,309.809L2.318,309.809L2.318,309.809L2.318,309.809C2.368,309.641 2.423,309.475 2.495,309.315Z"/>
            </g>
            <clipPath id="_clip2">
                <rect x="10.409" y="307.024" width="3.327" height="4.086"/>
            </clipPath>
            <g clip-path="url(#_clip2)">
                <path d="M10.635,310.013C10.435,309.575 10.411,309.083 10.426,308.609C10.455,307.706 11.211,306.996 12.115,307.025C13.018,307.054 13.728,307.81 13.699,308.714C13.695,308.829 13.692,308.944 13.694,309.059C13.694,309.075 13.703,309.184 13.694,309.117L13.696,309.134C13.782,309.776 13.514,310.474 12.944,310.815C12.918,310.831 12.892,310.845 12.865,310.859L12.865,310.859C12.081,311.264 11.118,310.878 10.701,310.143L10.7,310.142L10.699,310.14L10.697,310.135L10.696,310.135L10.695,310.133L10.691,310.126C10.671,310.09 10.652,310.052 10.635,310.014C10.635,310.014 10.635,310.014 10.635,310.014L10.635,310.014C10.635,310.014 10.635,310.013 10.635,310.013Z"/>
            </g>
            <clipPath id="_clip3">
                <rect x="17.915" y="307.043" width="3.759" height="4.607"/>
            </clipPath>
            <g clip-path="url(#_clip3)">
                <path d="M18.115,308.878C18.117,308.875 18.118,308.871 18.119,308.867C18.259,308.42 18.477,307.997 18.776,307.635C19.247,307.067 20.04,306.884 20.713,307.189C21.536,307.562 21.902,308.532 21.528,309.356L21.527,309.355C21.527,309.358 21.527,309.36 21.527,309.362L21.527,309.369C21.536,310.273 20.959,311.271 20.082,311.586C19.845,311.672 19.584,311.671 19.347,311.583L19.347,311.583L19.347,311.583C18.314,311.2 17.805,309.892 18.115,308.878Z"/>
            </g>
        </g>
    </g>
</svg>
